scripts/TB_Datapath.vcd
$date
	Fri Nov 22 01:30:43 2024
$end
$version
	Icarus Verilog
$end
$timescale
	1s
$end
$scope module TB_Datapath $end
$var reg 1 ! CLK $end
$var reg 1 " Reset $end
$scope module UUT $end
$var wire 1 ! CLK $end
$var wire 1 " Reset $end
$var wire 32 # Write_Data_to_mux_after_the_mux [31:0] $end
$var wire 1 $ WriteRegisterData_Src_Intermediate $end
$var wire 32 % SrcB_wire [31:0] $end
$var wire 32 & SrcA_wire [31:0] $end
$var wire 32 ' Result_wire [31:0] $end
$var wire 2 ( Result_Src [1:0] $end
$var wire 1 ) RegWrite_EN $end
$var wire 32 * Reg2_output [31:0] $end
$var wire 32 + Read_Mem_Data [31:0] $end
$var wire 32 , PCnext [31:0] $end
$var wire 32 - PC_wire [31:0] $end
$var wire 32 . PC_plus_4 [31:0] $end
$var wire 32 / PCTarget [31:0] $end
$var wire 1 0 PCSrc $end
$var wire 1 1 MemWrite_Enable $end
$var wire 32 2 Instruction [31:0] $end
$var wire 3 3 Imm_src [2:0] $end
$var wire 32 4 Extended_Imm [31:0] $end
$var wire 1 5 ALU_Src $end
$var wire 2 6 ALU_Flags [1:0] $end
$var wire 3 7 ALU_CONTROL_wire [2:0] $end
$var wire 32 8 ALUResult_wire [31:0] $end
$scope module ALUSRCB_Mux $end
$var wire 1 5 sel $end
$var wire 32 9 out [31:0] $end
$var wire 32 : b [31:0] $end
$var wire 32 ; a [31:0] $end
$upscope $end
$scope module ALU_unit $end
$var wire 32 < scrB [31:0] $end
$var wire 32 = scrA [31:0] $end
$var wire 3 > AluControl [2:0] $end
$var reg 32 ? ALUresult [31:0] $end
$var reg 2 @ Flag [1:0] $end
$upscope $end
$scope module BRANCH_OFFSET_ADDER $end
$var wire 32 A pc [31:0] $end
$var wire 32 B branch_offset [31:0] $end
$var wire 32 C PC_itself [31:0] $end
$upscope $end
$scope module ControlUnit $end
$var wire 3 D ALU_Control [2:0] $end
$var wire 2 E ALU_flags [1:0] $end
$var wire 1 5 ALU_src $end
$var wire 3 F ImmSrc [2:0] $end
$var wire 1 1 MemWrite $end
$var wire 1 0 PC_Src $end
$var wire 1 ) RegWrite $end
$var wire 2 G Result_src [1:0] $end
$var wire 1 $ WriteRegisterData_Src $end
$var wire 3 H funct3 [2:0] $end
$var wire 7 I opcode [6:0] $end
$var wire 1 J WriteRegisterData_Src_Intermediate $end
$var wire 2 K Result_src_intermediate [1:0] $end
$var wire 1 L RegWrite_intermediate $end
$var wire 1 M MemWrite_intermediate $end
$var wire 1 N Jump $end
$var wire 3 O ImmSrc_intermediate [2:0] $end
$var wire 1 P EncodedBranch $end
$var wire 1 Q Branch $end
$var wire 1 R ALU_src_intermediate $end
$var wire 3 S ALU_op [2:0] $end
$var wire 3 T ALU_Control_intermediate [2:0] $end
$scope module Alu_decode $end
$var wire 3 U funct3 [2:0] $end
$var wire 3 V ALUOP [2:0] $end
$var reg 3 W ALU_Control [2:0] $end
$upscope $end
$scope module BranchEncoding $end
$var wire 3 X funct3 [2:0] $end
$var reg 1 P Encoded_Branch $end
$upscope $end
$scope module main_decoder $end
$var wire 3 Y funct3 [2:0] $end
$var wire 7 Z opcode [6:0] $end
$var reg 3 [ ALU_op [2:0] $end
$var reg 1 R ALU_src $end
$var reg 1 Q Branch $end
$var reg 3 \ ImmSrc [2:0] $end
$var reg 1 N Jump $end
$var reg 1 M MemWrite $end
$var reg 1 L RegWrite $end
$var reg 2 ] Result_src [1:0] $end
$var reg 1 J WriteRegisterData_Src $end
$upscope $end
$upscope $end
$scope module DataMemory $end
$var wire 32 ^ ADDRESS [31:0] $end
$var wire 1 ! CLK $end
$var wire 1 1 WE $end
$var wire 3 _ funct3 [2:0] $end
$var wire 32 ` WRITE_DATA [31:0] $end
$var reg 32 a READ_DATA [31:0] $end
$scope task print_memory $end
$var reg 1025 b file [1024:0] $end
$var integer 32 c i [31:0] $end
$upscope $end
$upscope $end
$scope module Imm_Extender $end
$var wire 3 d ImmControl [2:0] $end
$var wire 32 e Instr [31:0] $end
$var reg 32 f ExtendedImm [31:0] $end
$upscope $end
$scope module Instruction_Memory $end
$var wire 32 g PC [31:0] $end
$var reg 32 h Instr [31:0] $end
$upscope $end
$scope module PCNEXT_Mux $end
$var wire 32 i b [31:0] $end
$var wire 1 0 sel $end
$var wire 32 j out [31:0] $end
$var wire 32 k a [31:0] $end
$upscope $end
$scope module PC_FLIPFLOP $end
$var wire 1 ! clk $end
$var wire 32 l d [31:0] $end
$var wire 1 " rst $end
$var reg 32 m q [31:0] $end
$upscope $end
$scope module PC_PLUS_FOUR $end
$var wire 32 n PC_itself [31:0] $end
$var wire 32 o pc [31:0] $end
$upscope $end
$scope module Register_File $end
$var wire 5 p A1 [4:0] $end
$var wire 5 q A2 [4:0] $end
$var wire 5 r A3 [4:0] $end
$var wire 1 ! CLK $end
$var wire 1 ) EN $end
$var wire 32 s WD3 [31:0] $end
$var reg 32 t RD1 [31:0] $end
$var reg 32 u RD2 [31:0] $end
$var integer 32 v i [31:0] $end
$upscope $end
$scope module Result_Mux $end
$var wire 32 w a [31:0] $end
$var wire 32 x b [31:0] $end
$var wire 32 y c [31:0] $end
$var wire 2 z sel [1:0] $end
$var reg 32 { out [31:0] $end
$upscope $end
$scope module WriteRegisterData_MUX $end
$var wire 32 | a [31:0] $end
$var wire 32 } b [31:0] $end
$var wire 1 $ sel $end
$var wire 32 ~ out [31:0] $end
$upscope $end
$scope task Dump_mem $end
$upscope $end
$upscope $end
$upscope $end
$enddefinitions $end
#0
$dumpvars
b1000110 ~
b11111111111111111111111111100000 }
b1000110 |
b1000110 {
b0 z
b1 y
bx x
b1000110 w
b100000 v
b0 u
b1100110 t
b1000110 s
b10 r
b0 q
b10 p
b1 o
b0 n
b0 m
b1 l
b1 k
b1 j
b1111111111111000 i
b11111110000000010000000100010011 h
b0 g
b11111111111111111111111111100000 f
b11111110000000010000000100010011 e
b0 d
bx c
bx b
bx a
b0 `
b0 _
b1000110 ^
b0 ]
b0 \
b111 [
b10011 Z
b0 Y
b0 X
b0 W
b111 V
b0 U
b0 T
b111 S
1R
0Q
xP
b0 O
0N
0M
1L
b0 K
0J
b10011 I
b0 H
b0 G
b0 F
b0 E
b0 D
b0 C
b11111111111111111111111111100000 B
b1111111111111000 A
b0 @
b1000110 ?
b0 >
b1100110 =
b11111111111111111111111111100000 <
b0 ;
b11111111111111111111111111100000 :
b11111111111111111111111111100000 9
b1000110 8
b0 7
b0 6
15
b11111111111111111111111111100000 4
b0 3
b11111110000000010000000100010011 2
01
00
b1111111111111000 /
b1 .
b0 -
b1 ,
bx +
b0 *
1)
b0 (
b1000110 '
b1100110 &
b11111111111111111111111111100000 %
0$
b1000110 #
1"
0!
$end
#1
0"
#2
b0 #
b0 s
b0 ~
b0 '
b0 {
b0 |
b0 S
b0 V
b0 [
bx (
bx G
bx z
bx K
bx ]
11
1M
b1 3
b1 F
b1 d
b1 O
b1 \
0)
0L
b1101100 *
b1101100 ;
b1101100 `
b1101100 u
b11100 %
b11100 9
b11100 <
b1100010 8
b1100010 ?
b1100010 ^
b1100010 w
b100011 I
b100011 Z
b10 H
b10 U
b10 X
b10 Y
b10 _
b11100 r
b1000 q
b11100 4
b11100 :
b11100 B
b11100 f
b11100 }
b1000110 &
b1000110 =
b1000110 t
b10 ,
b10 j
b10 l
b1000 /
b1000 A
b1000 i
b100000010010111000100011 2
b100000010010111000100011 e
b100000010010111000100011 h
b10 .
b10 k
b10 o
b10 y
b1 -
b1 C
b1 g
b1 m
b1 n
1!
#4
0!
#6
b1100110 #
b1100110 s
b1100110 ~
b1100110 '
b1100110 {
b1100110 |
b1100110 8
b1100110 ?
b1100110 ^
b1100110 w
b111 S
b111 V
b111 [
b0 (
b0 G
b0 z
b0 K
b0 ]
01
0M
b0 3
b0 F
b0 d
b0 O
b0 \
1)
1L
b0 *
b0 ;
b0 `
b0 u
b100000 %
b100000 9
b100000 <
b10011 I
b10011 Z
b0 H
b0 U
b0 X
b0 Y
b0 _
b1000 r
b0 q
b100000 4
b100000 :
b100000 B
b100000 f
b100000 }
bx +
bx a
bx x
b11 ,
b11 j
b11 l
b1010 /
b1010 A
b1010 i
b10000000010000010000010011 2
b10000000010000010000010011 e
b10000000010000010000010011 h
b11 .
b11 k
b11 o
b11 y
b10 -
b10 C
b10 g
b10 m
b10 n
1!
#8
0!
#10
bx 6
bx @
bx E
bx +
bx a
bx x
b1100000000000000 #
b1100000000000000 s
b1100000000000000 ~
b0 '
b0 {
b0 |
bx 8
bx ?
bx ^
bx w
1$
1J
bx S
bx V
bx [
bx (
bx G
bx z
bx K
bx ]
x5
xR
b100 3
b100 F
b100 d
b100 O
b100 \
b1100101 &
b1100101 =
b1100101 t
b0xx00000000000000 %
b0xx00000000000000 9
b0xx00000000000000 <
b110111 I
b110111 Z
b100 H
b100 U
b100 X
b100 Y
b100 _
b1111 r
b1 p
b1100000000000000 4
b1100000000000000 :
b1100000000000000 B
b1100000000000000 f
b1100000000000000 }
b100 ,
b100 j
b100 l
b11000000000011 /
b11000000000011 A
b11000000000011 i
b1100011110110111 2
b1100011110110111 e
b1100011110110111 h
b100 .
b100 k
b100 o
b100 y
b11 -
b11 C
b11 g
b11 m
b11 n
1!
#12
0!
#14
b0 6
b0 @
b0 E
b1100011111011111 8
b1100011111011111 ?
b1100011111011111 ^
b1100011111011111 w
b1100011111011111 '
b1100011111011111 {
b1100011111011111 |
0$
0J
b111 S
b111 V
b111 [
b0 (
b0 G
b0 z
b0 K
b0 ]
15
1R
b0 3
b0 F
b0 d
b0 O
b0 \
b10000011 *
b10000011 ;
b10000011 `
b10000011 u
b1100000000000000 &
b1100000000000000 =
b1100000000000000 t
b1100011111011111 #
b1100011111011111 s
b1100011111011111 ~
b11111011111 %
b11111011111 9
b11111011111 <
b10011 I
b10011 Z
b0 H
b0 U
b0 X
b0 Y
b0 _
b11111 q
b1111 p
b11111011111 4
b11111011111 :
b11111011111 B
b11111011111 f
b11111011111 }
b101 ,
b101 j
b101 l
b111111011 /
b111111011 A
b111111011 i
b1111101111101111000011110010011 2
b1111101111101111000011110010011 e
b1111101111101111000011110010011 h
b101 .
b101 k
b101 o
b101 y
b100 -
b100 C
b100 g
b100 m
b100 n
1!
#16
0!
#18
b0 #
b0 s
b0 ~
b0 '
b0 {
b0 |
b0 S
b0 V
b0 [
bx (
bx G
bx z
bx K
bx ]
11
1M
b1 3
b1 F
b1 d
b1 O
b1 \
0)
0L
b1100011111011111 *
b1100011111011111 ;
b1100011111011111 `
b1100011111011111 u
b11111111111111111111111111100100 %
b11111111111111111111111111100100 9
b11111111111111111111111111100100 <
b1001010 8
b1001010 ?
b1001010 ^
b1001010 w
b100011 I
b100011 Z
b10 H
b10 U
b10 X
b10 Y
b10 _
b100 r
b1111 q
b1000 p
b11111111111111111111111111100100 4
b11111111111111111111111111100100 :
b11111111111111111111111111100100 B
b11111111111111111111111111100100 f
b11111111111111111111111111100100 }
b1100110 &
b1100110 =
b1100110 t
b110 ,
b110 j
b110 l
b1111111111111110 /
b1111111111111110 A
b1111111111111110 i
b11111110111101000010001000100011 2
b11111110111101000010001000100011 e
b11111110111101000010001000100011 h
b110 .
b110 k
b110 o
b110 y
b101 -
b101 C
b101 g
b101 m
b101 n
1!
#20
0!
#22
b1100011 #
b1100011 s
b1100011 ~
b1100011 '
b1100011 {
b1100011 |
b1100011 8
b1100011 ?
b1100011 ^
b1100011 w
b111 S
b111 V
b111 [
b0 (
b0 G
b0 z
b0 K
b0 ]
01
0M
b0 3
b0 F
b0 d
b0 O
b0 \
1)
1L
b1100111 *
b1100111 ;
b1100111 `
b1100111 u
b0 &
b0 =
b0 t
b1100011 %
b1100011 9
b1100011 <
b10011 I
b10011 Z
b0 H
b0 U
b0 X
b0 Y
b0 _
b1111 r
b11 q
b0 p
b1100011 4
b1100011 :
b1100011 B
b1100011 f
b1100011 }
b1101100xxxxxxxx +
b1101100xxxxxxxx a
b1101100xxxxxxxx x
b111 ,
b111 j
b111 l
b11110 /
b11110 A
b11110 i
b110001100000000011110010011 2
b110001100000000011110010011 e
b110001100000000011110010011 h
b111 .
b111 k
b111 o
b111 y
b110 -
b110 C
b110 g
b110 m
b110 n
1!
#24
0!
#26
b0 #
b0 s
b0 ~
bx000000000000000011000111 +
bx000000000000000011000111 a
bx000000000000000011000111 x
b0 '
b0 {
b0 |
b1001001 8
b1001001 ?
b1001001 ^
b1001001 w
b0 S
b0 V
b0 [
bx (
bx G
bx z
bx K
bx ]
11
1M
b1 3
b1 F
b1 d
b1 O
b1 \
0)
0L
b1100011 *
b1100011 ;
b1100011 `
b1100011 u
b1100110 &
b1100110 =
b1100110 t
b11111111111111111111111111100011 %
b11111111111111111111111111100011 9
b11111111111111111111111111100011 <
b100011 I
b100011 Z
b11 r
b1111 q
b1000 p
b11111111111111111111111111100011 4
b11111111111111111111111111100011 :
b11111111111111111111111111100011 B
b11111111111111111111111111100011 f
b11111111111111111111111111100011 }
b1000 ,
b1000 j
b1000 l
b1111111111111111 /
b1111111111111111 A
b1111111111111111 i
b11111110111101000000000110100011 2
b11111110111101000000000110100011 e
b11111110111101000000000110100011 h
b1000 .
b1000 k
b1000 o
b1000 y
b111 -
b111 C
b111 g
b111 m
b111 n
1!
#28
0!
#30
b100001 #
b100001 s
b100001 ~
b100001 '
b100001 {
b100001 |
b100001 8
b100001 ?
b100001 ^
b100001 w
b111 S
b111 V
b111 [
b0 (
b0 G
b0 z
b0 K
b0 ]
01
0M
b0 3
b0 F
b0 d
b0 O
b0 \
1)
1L
b1100101 *
b1100101 ;
b1100101 `
b1100101 u
b0 &
b0 =
b0 t
b100001 %
b100001 9
b100001 <
b10011 I
b10011 Z
b1111 r
b1 q
b0 p
b100001 4
b100001 :
b100001 B
b100001 f
b100001 }
bx +
bx a
bx x
b1001 ,
b1001 j
b1001 l
b10000 /
b10000 A
b10000 i
b10000100000000011110010011 2
b10000100000000011110010011 e
b10000100000000011110010011 h
b1001 .
b1001 k
b1001 o
b1001 y
b1000 -
b1000 C
b1000 g
b1000 m
b1000 n
1!
#32
0!
#34
b0 #
b0 s
b0 ~
b0 '
b0 {
b0 |
b1010010 8
b1010010 ?
b1010010 ^
b1010010 w
b0 S
b0 V
b0 [
bx (
bx G
bx z
bx K
bx ]
11
1M
b1 3
b1 F
b1 d
b1 O
b1 \
0)
0L
b100001 *
b100001 ;
b100001 `
b100001 u
b1100110 &
b1100110 =
b1100110 t
b11111111111111111111111111101100 %
b11111111111111111111111111101100 9
b11111111111111111111111111101100 <
b100011 I
b100011 Z
b10 H
b10 U
b10 X
b10 Y
b10 _
b1100 r
b1111 q
b1000 p
b11111111111111111111111111101100 4
b11111111111111111111111111101100 :
b11111111111111111111111111101100 B
b11111111111111111111111111101100 f
b11111111111111111111111111101100 }
b1010 ,
b1010 j
b1010 l
b100 /
b100 A
b100 i
b11111110111101000010011000100011 2
b11111110111101000010011000100011 e
b11111110111101000010011000100011 h
b1010 .
b1010 k
b1010 o
b1010 y
b1001 -
b1001 C
b1001 g
b1001 m
b1001 n
1!
#36
0!
#38
b1001110 8
b1001110 ?
b1001110 ^
b1001110 w
b0 *
b0 ;
b0 `
b0 u
b11111111111111111111111111101000 %
b11111111111111111111111111101000 9
b11111111111111111111111111101000 <
b1000 r
b0 q
b11111111111111111111111111101000 4
b11111111111111111111111111101000 :
b11111111111111111111111111101000 B
b11111111111111111111111111101000 f
b11111111111111111111111111101000 }
bx +
bx a
bx x
b1011 ,
b1011 j
b1011 l
b100 /
b100 A
b100 i
b11111110000001000010010000100011 2
b11111110000001000010010000100011 e
b11111110000001000010010000100011 h
b1011 .
b1011 k
b1011 o
b1011 y
b1010 -
b1010 C
b1010 g
b1010 m
b1010 n
1!
#40
0!
#42
b1100 #
b1100 s
b1100 ~
bx 6
bx @
bx E
10
b1100 '
b1100 {
b1100 |
bx 8
bx ?
bx ^
bx w
1N
bx S
bx V
bx [
b10 (
b10 G
b10 z
b10 K
b10 ]
01
0M
x5
xR
b11 3
b11 F
b11 d
b11 O
b11 \
1)
1L
b10000000 *
b10000000 ;
b10000000 `
b10000000 u
b0 &
b0 =
b0 t
b0x0xxxx00 %
b0x0xxxx00 9
b0x0xxxx00 <
b1101111 I
b1101111 Z
b0 H
b0 U
b0 X
b0 Y
b0 _
b0 r
b11100 q
b0 p
b111100 4
b111100 :
b111100 B
b111100 f
b111100 }
bx +
bx a
bx x
b11010 ,
b11010 j
b11010 l
b11010 /
b11010 A
b11010 i
b11110000000000000001101111 2
b11110000000000000001101111 e
b11110000000000000001101111 h
b1100 .
b1100 k
b1100 o
b1100 y
b1011 -
b1011 C
b1011 g
b1011 m
b1011 n
1!
#44
0!
#46
b0 +
b0 a
b0 x
b0 6
b0 @
b0 E
b1001110 8
b1001110 ?
b1001110 ^
b1001110 w
00
0N
b0 S
b0 V
b0 [
b1 (
b1 G
b1 z
b1 K
b1 ]
15
1R
b0 3
b0 F
b0 d
b0 O
b0 \
b1100110 *
b1100110 ;
b1100110 `
b1100110 u
b1100110 &
b1100110 =
b1100110 t
b11111111111111111111111111101000 %
b11111111111111111111111111101000 9
b11111111111111111111111111101000 <
b0 #
b0 s
b0 ~
b11011 ,
b11011 j
b11011 l
b11 I
b11 Z
b10 H
b10 U
b10 X
b10 Y
b10 _
b1110 r
b1000 q
b1000 p
b11111111111111111111111111101000 4
b11111111111111111111111111101000 :
b11111111111111111111111111101000 B
b11111111111111111111111111101000 f
b11111111111111111111111111101000 }
b0 '
b0 {
b0 |
b10100 /
b10100 A
b10100 i
b11111110100001000010011100000011 2
b11111110100001000010011100000011 e
b11111110100001000010011100000011 h
b11011 .
b11011 k
b11011 o
b11011 y
b11010 -
b11010 C
b11010 g
b11010 m
b11010 n
1!
#48
0!
#50
b1 #
b1 s
b1 ~
bx +
bx a
bx x
b1 '
b1 {
b1 |
b1 8
b1 ?
b1 ^
b1 w
b111 S
b111 V
b111 [
b0 (
b0 G
b0 z
b0 K
b0 ]
b1100101 *
b1100101 ;
b1100101 `
b1100101 u
b0 &
b0 =
b0 t
b1 %
b1 9
b1 <
b10011 I
b10011 Z
b0 H
b0 U
b0 X
b0 Y
b0 _
b1111 r
b1 q
b0 p
b1 4
b1 :
b1 B
b1 f
b1 }
b11100 ,
b11100 j
b11100 l
b11011 /
b11011 A
b11011 i
b100000000011110010011 2
b100000000011110010011 e
b100000000011110010011 h
b11100 .
b11100 k
b11100 o
b11100 y
b11011 -
b11011 C
b11011 g
b11011 m
b11011 n
1!
#52
0!
#54
10
b0 #
b0 s
b0 ~
b0 '
b0 {
b0 |
b1 8
b1 ?
b1 ^
b1 w
b1 7
b1 >
b1 D
b1 T
b1 W
0P
b1 S
b1 V
b1 [
1Q
bx (
bx G
bx z
bx K
bx ]
05
0R
b10 3
b10 F
b10 d
b10 O
b10 \
0)
0L
b0 *
b0 ;
b0 `
b0 u
b1 &
b1 =
b1 t
b0 %
b0 9
b0 <
b1100011 I
b1100011 Z
b101 H
b101 U
b101 X
b101 Y
b101 _
b1 r
b1110 q
b1111 p
b11111111111111111111111111000000 4
b11111111111111111111111111000000 :
b11111111111111111111111111000000 B
b11111111111111111111111111000000 f
b11111111111111111111111111000000 }
b1100 ,
b1100 j
b1100 l
b1100 /
b1100 A
b1100 i
b11111100111001111101000011100011 2
b11111100111001111101000011100011 e
b11111100111001111101000011100011 h
b11101 .
b11101 k
b11101 o
b11101 y
b11100 -
b11100 C
b11100 g
b11100 m
b11100 n
1!
#56
0!
#58
00
b0 +
b0 a
b0 x
b0 #
b0 s
b0 ~
b0 '
b0 {
b0 |
b11111111111111111111111111101000 %
b11111111111111111111111111101000 9
b11111111111111111111111111101000 <
b1001110 8
b1001110 ?
b1001110 ^
b1001110 w
b0 7
b0 >
b0 D
b0 T
b0 W
xP
b0 S
b0 V
b0 [
0Q
b1 (
b1 G
b1 z
b1 K
b1 ]
15
1R
b0 3
b0 F
b0 d
b0 O
b0 \
1)
1L
b1100110 *
b1100110 ;
b1100110 `
b1100110 u
b1100110 &
b1100110 =
b1100110 t
b1101 ,
b1101 j
b1101 l
b11 I
b11 Z
b10 H
b10 U
b10 X
b10 Y
b10 _
b1111 r
b1000 q
b1000 p
b11111111111111111111111111101000 4
b11111111111111111111111111101000 :
b11111111111111111111111111101000 B
b11111111111111111111111111101000 f
b11111111111111111111111111101000 }
b110 /
b110 A
b110 i
b11111110100001000010011110000011 2
b11111110100001000010011110000011 e
b11111110100001000010011110000011 h
b1101 .
b1101 k
b1101 o
b1101 y
b1100 -
b1100 C
b1100 g
b1100 m
b1100 n
1!
#60
0!
#62
00
bx +
bx a
bx x
b1 6
b1 @
b1 E
b0 8
b0 ?
b0 ^
b0 w
b1 7
b1 >
b1 D
b1 T
b1 W
1P
b1 S
b1 V
b1 [
1Q
bx (
bx G
bx z
bx K
bx ]
05
0R
b10 3
b10 F
b10 d
b10 O
b10 \
0)
0L
b0 *
b0 ;
b0 `
b0 u
b0 &
b0 =
b0 t
b0 %
b0 9
b0 <
b1100011 I
b1100011 Z
b1 H
b1 U
b1 X
b1 Y
b1 _
b10000 r
b0 q
b1111 p
b10000 4
b10000 :
b10000 B
b10000 f
b10000 }
b1110 ,
b1110 j
b1110 l
b10001 /
b10001 A
b10001 i
b1111001100001100011 2
b1111001100001100011 e
b1111001100001100011 h
b1110 .
b1110 k
b1110 o
b1110 y
b1101 -
b1101 C
b1101 g
b1101 m
b1101 n
1!
#64
0!
#66
b1101100 +
b1101100 a
b1101100 x
b1100010 #
b1100010 s
b1100010 ~
b1100010 '
b1100010 {
b1100010 |
b0 6
b0 @
b0 E
b1100010 8
b1100010 ?
b1100010 ^
b1100010 w
b1100010 %
b1100010 9
b1100010 <
b0 7
b0 >
b0 D
b0 T
b0 W
xP
b111 S
b111 V
b111 [
0Q
b0 (
b0 G
b0 z
b0 K
b0 ]
15
1R
b0 3
b0 F
b0 d
b0 O
b0 \
1)
1L
b1000110 *
b1000110 ;
b1000110 `
b1000110 u
b10011 I
b10011 Z
b0 H
b0 U
b0 X
b0 Y
b0 _
b1111 r
b10 q
b0 p
b1100010 4
b1100010 :
b1100010 B
b1100010 f
b1100010 }
b1111 ,
b1111 j
b1111 l
b100110 /
b100110 A
b100110 i
b110001000000000011110010011 2
b110001000000000011110010011 e
b110001000000000011110010011 h
b1111 .
b1111 k
b1111 o
b1111 y
b1110 -
b1110 C
b1110 g
b1110 m
b1110 n
1!
#68
0!
#70
b0 #
b0 s
b0 ~
b1100011000000000000000011000111 +
b1100011000000000000000011000111 a
b1100011000000000000000011000111 x
b0 '
b0 {
b0 |
b1001001 8
b1001001 ?
b1001001 ^
b1001001 w
b0 S
b0 V
b0 [
bx (
bx G
bx z
bx K
bx ]
11
1M
b1 3
b1 F
b1 d
b1 O
b1 \
0)
0L
b1100010 *
b1100010 ;
b1100010 `
b1100010 u
b1100110 &
b1100110 =
b1100110 t
b11111111111111111111111111100011 %
b11111111111111111111111111100011 9
b11111111111111111111111111100011 <
b100011 I
b100011 Z
b11 r
b1111 q
b1000 p
b11111111111111111111111111100011 4
b11111111111111111111111111100011 :
b11111111111111111111111111100011 B
b11111111111111111111111111100011 f
b11111111111111111111111111100011 }
b10000 ,
b10000 j
b10000 l
b111 /
b111 A
b111 i
b11111110111101000000000110100011 2
b11111110111101000000000110100011 e
b11111110111101000000000110100011 h
b10000 .
b10000 k
b10000 o
b10000 y
b1111 -
b1111 C
b1111 g
b1111 m
b1111 n
1!
#72
0!
#74
b10001 #
b10001 s
b10001 ~
10
b10001 '
b10001 {
b10001 |
bx 6
bx @
bx E
bx 8
bx ?
bx ^
bx w
1N
bx S
bx V
bx [
b10 (
b10 G
b10 z
b10 K
b10 ]
01
0M
x5
xR
b11 3
b11 F
b11 d
b11 O
b11 \
1)
1L
b10000000 *
b10000000 ;
b10000000 `
b10000000 u
b0 &
b0 =
b0 t
b0x00xxx00 %
b0x00xxx00 9
b0x00xxx00 <
b1101111 I
b1101111 Z
b0 r
b11100 q
b0 p
b11100 4
b11100 :
b11100 B
b11100 f
b11100 }
bx +
bx a
bx x
b10111 ,
b10111 j
b10111 l
b10111 /
b10111 A
b10111 i
b1110000000000000001101111 2
b1110000000000000001101111 e
b1110000000000000001101111 h
b10001 .
b10001 k
b10001 o
b10001 y
b10000 -
b10000 C
b10000 g
b10000 m
b10000 n
1!
#76
0!
#78
b0 +
b0 a
b0 x
b0 6
b0 @
b0 E
b1001110 8
b1001110 ?
b1001110 ^
b1001110 w
00
0N
b0 S
b0 V
b0 [
b1 (
b1 G
b1 z
b1 K
b1 ]
15
1R
b0 3
b0 F
b0 d
b0 O
b0 \
b1100110 *
b1100110 ;
b1100110 `
b1100110 u
b1100110 &
b1100110 =
b1100110 t
b11111111111111111111111111101000 %
b11111111111111111111111111101000 9
b11111111111111111111111111101000 <
b0 #
b0 s
b0 ~
b11000 ,
b11000 j
b11000 l
b11 I
b11 Z
b10 H
b10 U
b10 X
b10 Y
b10 _
b1111 r
b1000 q
b1000 p
b11111111111111111111111111101000 4
b11111111111111111111111111101000 :
b11111111111111111111111111101000 B
b11111111111111111111111111101000 f
b11111111111111111111111111101000 }
b0 '
b0 {
b0 |
b10001 /
b10001 A
b10001 i
b11111110100001000010011110000011 2
b11111110100001000010011110000011 e
b11111110100001000010011110000011 h
b11000 .
b11000 k
b11000 o
b11000 y
b10111 -
b10111 C
b10111 g
b10111 m
b10111 n
1!
#80
0!
#82
b1 #
b1 s
b1 ~
bx +
bx a
bx x
b1 '
b1 {
b1 |
b1 8
b1 ?
b1 ^
b1 w
b111 S
b111 V
b111 [
b0 (
b0 G
b0 z
b0 K
b0 ]
b1100101 *
b1100101 ;
b1100101 `
b1100101 u
b0 &
b0 =
b0 t
b1 %
b1 9
b1 <
b10011 I
b10011 Z
b0 H
b0 U
b0 X
b0 Y
b0 _
b1 q
b1111 p
b1 4
b1 :
b1 B
b1 f
b1 }
b11001 ,
b11001 j
b11001 l
b11000 /
b11000 A
b11000 i
b101111000011110010011 2
b101111000011110010011 e
b101111000011110010011 h
b11001 .
b11001 k
b11001 o
b11001 y
b11000 -
b11000 C
b11000 g
b11000 m
b11000 n
1!
#84
0!
#86
b0 +
b0 a
b0 x
b0 #
b0 s
b0 ~
b0 '
b0 {
b0 |
b0 S
b0 V
b0 [
bx (
bx G
bx z
bx K
bx ]
11
1M
b1 3
b1 F
b1 d
b1 O
b1 \
0)
0L
b1 *
b1 ;
b1 `
b1 u
b11111111111111111111111111101000 %
b11111111111111111111111111101000 9
b11111111111111111111111111101000 <
b1001110 8
b1001110 ?
b1001110 ^
b1001110 w
b100011 I
b100011 Z
b10 H
b10 U
b10 X
b10 Y
b10 _
b1000 r
b1111 q
b1000 p
b11111111111111111111111111101000 4
b11111111111111111111111111101000 :
b11111111111111111111111111101000 B
b11111111111111111111111111101000 f
b11111111111111111111111111101000 }
b1100110 &
b1100110 =
b1100110 t
b11010 ,
b11010 j
b11010 l
b10011 /
b10011 A
b10011 i
b11111110111101000010010000100011 2
b11111110111101000010010000100011 e
b11111110111101000010010000100011 h
b11010 .
b11010 k
b11010 o
b11010 y
b11001 -
b11001 C
b11001 g
b11001 m
b11001 n
1!
#88
0!
#90
b1 #
b1 s
b1 ~
b1 '
b1 {
b1 |
b1001110 8
b1001110 ?
b1001110 ^
b1001110 w
b1 (
b1 G
b1 z
b1 K
b1 ]
01
0M
b0 3
b0 F
b0 d
b0 O
b0 \
1)
1L
b1100110 *
b1100110 ;
b1100110 `
b1100110 u
b11111111111111111111111111101000 %
b11111111111111111111111111101000 9
b11111111111111111111111111101000 <
b11 I
b11 Z
b1110 r
b1000 q
b11111111111111111111111111101000 4
b11111111111111111111111111101000 :
b11111111111111111111111111101000 B
b11111111111111111111111111101000 f
b11111111111111111111111111101000 }
b1 +
b1 a
b1 x
b11011 ,
b11011 j
b11011 l
b10100 /
b10100 A
b10100 i
b11111110100001000010011100000011 2
b11111110100001000010011100000011 e
b11111110100001000010011100000011 h
b11011 .
b11011 k
b11011 o
b11011 y
b11010 -
b11010 C
b11010 g
b11010 m
b11010 n
1!
#92
0!
#94
bx +
bx a
bx x
b1 8
b1 ?
b1 ^
b1 w
b111 S
b111 V
b111 [
b0 (
b0 G
b0 z
b0 K
b0 ]
b1100101 *
b1100101 ;
b1100101 `
b1100101 u
b0 &
b0 =
b0 t
b1 %
b1 9
b1 <
b10011 I
b10011 Z
b0 H
b0 U
b0 X
b0 Y
b0 _
b1111 r
b1 q
b0 p
b1 4
b1 :
b1 B
b1 f
b1 }
b11100 ,
b11100 j
b11100 l
b11011 /
b11011 A
b11011 i
b100000000011110010011 2
b100000000011110010011 e
b100000000011110010011 h
b11100 .
b11100 k
b11100 o
b11100 y
b11011 -
b11011 C
b11011 g
b11011 m
b11011 n
1!
#96
0!
