scripts/TB_Datapath.vcd
$date
	Mon Nov 18 15:51:10 2024
$end
$version
	Icarus Verilog
$end
$timescale
	1s
$end
$scope module TB_Datapath $end
$var reg 1 ! CLK $end
$var reg 1 " Reset $end
$scope module UUT $end
$var wire 1 ! CLK $end
$var wire 1 " Reset $end
$var wire 32 # SrcB_wire [31:0] $end
$var wire 32 $ SrcA_wire [31:0] $end
$var wire 32 % Result_wire [31:0] $end
$var wire 2 & Result_Src [1:0] $end
$var wire 1 ' RegWrite_EN $end
$var wire 32 ( Reg2_output [31:0] $end
$var wire 32 ) Read_Mem_Data [31:0] $end
$var wire 32 * PCnext [31:0] $end
$var wire 32 + PC_wire [31:0] $end
$var wire 32 , PC_plus_4 [31:0] $end
$var wire 32 - PCTarget [31:0] $end
$var wire 1 . PCSrc $end
$var wire 1 / MemWrite_Enable $end
$var wire 32 0 Instruction [31:0] $end
$var wire 3 1 Imm_src [2:0] $end
$var wire 32 2 Extended_Imm [31:0] $end
$var wire 1 3 ALU_Src $end
$var wire 3 4 ALU_Flags [2:0] $end
$var wire 3 5 ALU_CONTROL_wire [2:0] $end
$var wire 32 6 ALUResult_wire [31:0] $end
$scope module ALUSRCB_Mux $end
$var wire 1 3 sel $end
$var wire 32 7 out [31:0] $end
$var wire 32 8 b [31:0] $end
$var wire 32 9 a [31:0] $end
$upscope $end
$scope module ALU_unit $end
$var wire 32 : scrB [31:0] $end
$var wire 32 ; scrA [31:0] $end
$var wire 3 < AluControl [2:0] $end
$var reg 32 = ALUresult [31:0] $end
$var reg 3 > Flag [2:0] $end
$upscope $end
$scope module BRANCH_OFFSET_ADDER $end
$var wire 32 ? pc [31:0] $end
$var wire 32 @ branch_offset [31:0] $end
$var wire 32 A PC_itself [31:0] $end
$upscope $end
$scope module ControlUnit $end
$var wire 3 B ALU_Control [2:0] $end
$var wire 3 C ALU_flags [2:0] $end
$var wire 1 3 ALU_src $end
$var wire 3 D ImmSrc [2:0] $end
$var wire 1 / MemWrite $end
$var wire 1 ' RegWrite $end
$var wire 2 E Result_src [1:0] $end
$var wire 3 F funct3 [2:0] $end
$var wire 7 G opcode [6:0] $end
$var wire 2 H Result_src_intermediate [1:0] $end
$var wire 1 I RegWrite_intermediate $end
$var wire 1 . PC_Src $end
$var wire 1 J MemWrite_intermediate $end
$var wire 1 K Jump $end
$var wire 3 L ImmSrc_intermediate [2:0] $end
$var wire 1 M Branch $end
$var wire 1 N ALU_src_intermediate $end
$var wire 3 O ALU_op [2:0] $end
$var wire 3 P ALU_Control_intermediate [2:0] $end
$scope module Alu_decode $end
$var wire 3 Q funct3 [2:0] $end
$var wire 3 R ALUOP [2:0] $end
$var reg 3 S ALU_Control [2:0] $end
$upscope $end
$scope module main_decoder $end
$var wire 3 T funct3 [2:0] $end
$var wire 7 U opcode [6:0] $end
$var reg 3 V ALU_op [2:0] $end
$var reg 1 N ALU_src $end
$var reg 1 M Branch $end
$var reg 3 W ImmSrc [2:0] $end
$var reg 1 K Jump $end
$var reg 1 J MemWrite $end
$var reg 1 I RegWrite $end
$var reg 2 X Result_src [1:0] $end
$upscope $end
$upscope $end
$scope module DataMemory $end
$var wire 32 Y ADDRESS [31:0] $end
$var wire 1 ! CLK $end
$var wire 1 / WE $end
$var wire 3 Z funct3 [2:0] $end
$var wire 32 [ WRITE_DATA [31:0] $end
$var reg 32 \ READ_DATA [31:0] $end
$scope task print_memory $end
$var reg 1025 ] file [1024:0] $end
$var integer 32 ^ i [31:0] $end
$upscope $end
$upscope $end
$scope module Imm_Extender $end
$var wire 3 _ ImmControl [2:0] $end
$var wire 32 ` Instr [31:0] $end
$var reg 32 a ExtendedImm [31:0] $end
$upscope $end
$scope module Instruction_Memory $end
$var wire 32 b PC [31:0] $end
$var reg 32 c Instr [31:0] $end
$upscope $end
$scope module PCNEXT_Mux $end
$var wire 32 d b [31:0] $end
$var wire 1 . sel $end
$var wire 32 e out [31:0] $end
$var wire 32 f a [31:0] $end
$upscope $end
$scope module PC_FLIPFLOP $end
$var wire 1 ! clk $end
$var wire 32 g d [31:0] $end
$var wire 1 " rst $end
$var reg 32 h q [31:0] $end
$upscope $end
$scope module PC_PLUS_FOUR $end
$var wire 32 i PC_itself [31:0] $end
$var wire 32 j pc [31:0] $end
$upscope $end
$scope module Register_File $end
$var wire 5 k A1 [4:0] $end
$var wire 5 l A2 [4:0] $end
$var wire 5 m A3 [4:0] $end
$var wire 1 ! CLK $end
$var wire 1 ' EN $end
$var wire 32 n WD3 [31:0] $end
$var reg 32 o RD1 [31:0] $end
$var reg 32 p RD2 [31:0] $end
$var integer 32 q i [31:0] $end
$upscope $end
$scope module Result_Mux $end
$var wire 32 r a [31:0] $end
$var wire 32 s b [31:0] $end
$var wire 32 t c [31:0] $end
$var wire 2 u sel [1:0] $end
$var reg 32 v out [31:0] $end
$upscope $end
$scope task Dump_mem $end
$upscope $end
$upscope $end
$upscope $end
$enddefinitions $end
#0
$dumpvars
b1000110 v
b0 u
b1 t
bx s
b1000110 r
b100000 q
b1100100 p
b1100110 o
b1000110 n
b10 m
b0 l
b10 k
b1 j
b0 i
b0 h
b1 g
b1 f
b1 e
b1111111111111000 d
b11111110000000010000000100010011 c
b0 b
b11111111111111111111111111100000 a
b11111110000000010000000100010011 `
b0 _
bx ^
bx ]
bx \
b1100100 [
b0 Z
b1000110 Y
b0 X
b0 W
b111 V
b10011 U
b0 T
b0 S
b111 R
b0 Q
b0 P
b111 O
1N
0M
b0 L
0K
0J
1I
b0 H
b10011 G
b0 F
b0 E
b0 D
bx00 C
b0 B
b0 A
b11111111111111111111111111100000 @
b1111111111111000 ?
bx00 >
b1000110 =
b0 <
b1100110 ;
b11111111111111111111111111100000 :
b1100100 9
b11111111111111111111111111100000 8
b11111111111111111111111111100000 7
b1000110 6
b0 5
bx00 4
13
b11111111111111111111111111100000 2
b0 1
b11111110000000010000000100010011 0
0/
0.
b1111111111111000 -
b1 ,
b0 +
b1 *
bx )
b1100100 (
1'
b0 &
b1000110 %
b1100110 $
b11111111111111111111111111100000 #
1"
0!
$end
#1
0"
#2
b0 %
b0 n
b0 v
b0 O
b0 R
b0 V
bx &
bx E
bx u
bx H
bx X
1/
1J
b1 1
b1 D
b1 _
b1 L
b1 W
0'
0I
b1101100 (
b1101100 9
b1101100 [
b1101100 p
b11100 #
b11100 7
b11100 :
b1100010 6
b1100010 =
b1100010 Y
b1100010 r
b100011 G
b100011 U
b10 F
b10 Q
b10 T
b10 Z
b11100 m
b1000 l
b11100 2
b11100 8
b11100 @
b11100 a
b1000110 $
b1000110 ;
b1000110 o
b10 *
b10 e
b10 g
b1000 -
b1000 ?
b1000 d
b100000010010111000100011 0
b100000010010111000100011 `
b100000010010111000100011 c
b10 ,
b10 f
b10 j
b10 t
b1 +
b1 A
b1 b
b1 h
b1 i
1!
#4
0!
#6
b1100110 %
b1100110 n
b1100110 v
b1100110 6
b1100110 =
b1100110 Y
b1100110 r
b111 O
b111 R
b111 V
b0 &
b0 E
b0 u
b0 H
b0 X
0/
0J
b0 1
b0 D
b0 _
b0 L
b0 W
1'
1I
b1100100 (
b1100100 9
b1100100 [
b1100100 p
b100000 #
b100000 7
b100000 :
b10011 G
b10011 U
b0 F
b0 Q
b0 T
b0 Z
b1000 m
b0 l
b100000 2
b100000 8
b100000 @
b100000 a
bx )
bx \
bx s
b11 *
b11 e
b11 g
b1010 -
b1010 ?
b1010 d
b10000000010000010000010011 0
b10000000010000010000010011 `
b10000000010000010000010011 c
b11 ,
b11 f
b11 j
b11 t
b10 +
b10 A
b10 b
b10 h
b10 i
1!
#8
0!
#10
bx 4
bx >
bx C
bx )
bx \
bx s
b0 %
b0 n
b0 v
bx 6
bx =
bx Y
bx r
bx O
bx R
bx V
bx &
bx E
bx u
bx H
bx X
x3
xN
b100 1
b100 D
b100 _
b100 L
b100 W
b1100101 $
b1100101 ;
b1100101 o
b0xx00000xx00x00 #
b0xx00000xx00x00 7
b0xx00000xx00x00 :
b110111 G
b110111 U
b100 F
b100 Q
b100 T
b100 Z
b1111 m
b1 k
b11000000000000 2
b11000000000000 8
b11000000000000 @
b11000000000000 a
b100 *
b100 e
b100 g
b110000000011 -
b110000000011 ?
b110000000011 d
b1100011110110111 0
b1100011110110111 `
b1100011110110111 c
b100 ,
b100 f
b100 j
b100 t
b11 +
b11 A
b11 b
b11 h
b11 i
1!
#12
0!
#14
bx00 4
bx00 >
bx00 C
b11111011111 6
b11111011111 =
b11111011111 Y
b11111011111 r
b11111011111 %
b11111011111 n
b11111011111 v
b111 O
b111 R
b111 V
b0 &
b0 E
b0 u
b0 H
b0 X
13
1N
b0 1
b0 D
b0 _
b0 L
b0 W
b10000011 (
b10000011 9
b10000011 [
b10000011 p
b0 $
b0 ;
b0 o
b11111011111 #
b11111011111 7
b11111011111 :
b10011 G
b10011 U
b0 F
b0 Q
b0 T
b0 Z
b11111 l
b1111 k
b11111011111 2
b11111011111 8
b11111011111 @
b11111011111 a
b101 *
b101 e
b101 g
b111111011 -
b111111011 ?
b111111011 d
b1111101111101111000011110010011 0
b1111101111101111000011110010011 `
b1111101111101111000011110010011 c
b101 ,
b101 f
b101 j
b101 t
b100 +
b100 A
b100 b
b100 h
b100 i
1!
#16
0!
#18
b0 %
b0 n
b0 v
b0 O
b0 R
b0 V
bx &
bx E
bx u
bx H
bx X
1/
1J
b1 1
b1 D
b1 _
b1 L
b1 W
0'
0I
b11111011111 (
b11111011111 9
b11111011111 [
b11111011111 p
b11111111111111111111111111100100 #
b11111111111111111111111111100100 7
b11111111111111111111111111100100 :
b1001010 6
b1001010 =
b1001010 Y
b1001010 r
b100011 G
b100011 U
b10 F
b10 Q
b10 T
b10 Z
b100 m
b1111 l
b1000 k
b11111111111111111111111111100100 2
b11111111111111111111111111100100 8
b11111111111111111111111111100100 @
b11111111111111111111111111100100 a
b1100110 $
b1100110 ;
b1100110 o
b110 *
b110 e
b110 g
b1111111111111110 -
b1111111111111110 ?
b1111111111111110 d
b11111110111101000010001000100011 0
b11111110111101000010001000100011 `
b11111110111101000010001000100011 c
b110 ,
b110 f
b110 j
b110 t
b101 +
b101 A
b101 b
b101 h
b101 i
1!
#20
0!
#22
b11000111 %
b11000111 n
b11000111 v
b11000111 6
b11000111 =
b11000111 Y
b11000111 r
b111 O
b111 R
b111 V
b0 &
b0 E
b0 u
b0 H
b0 X
0/
0J
b0 1
b0 D
b0 _
b0 L
b0 W
1'
1I
b1100111 (
b1100111 9
b1100111 [
b1100111 p
b1100100 $
b1100100 ;
b1100100 o
b1100011 #
b1100011 7
b1100011 :
b10011 G
b10011 U
b0 F
b0 Q
b0 T
b0 Z
b1111 m
b11 l
b0 k
b1100011 2
b1100011 8
b1100011 @
b1100011 a
bx )
bx \
bx s
b111 *
b111 e
b111 g
b11110 -
b11110 ?
b11110 d
b110001100000000011110010011 0
b110001100000000011110010011 `
b110001100000000011110010011 c
b111 ,
b111 f
b111 j
b111 t
b110 +
b110 A
b110 b
b110 h
b110 i
1!
#24
0!
#26
bx000000000000000000000111 )
bx000000000000000000000111 \
bx000000000000000000000111 s
b0 %
b0 n
b0 v
b1001001 6
b1001001 =
b1001001 Y
b1001001 r
b0 O
b0 R
b0 V
bx &
bx E
bx u
bx H
bx X
1/
1J
b1 1
b1 D
b1 _
b1 L
b1 W
0'
0I
b11000111 (
b11000111 9
b11000111 [
b11000111 p
b1100110 $
b1100110 ;
b1100110 o
b11111111111111111111111111100011 #
b11111111111111111111111111100011 7
b11111111111111111111111111100011 :
b100011 G
b100011 U
b11 m
b1111 l
b1000 k
b11111111111111111111111111100011 2
b11111111111111111111111111100011 8
b11111111111111111111111111100011 @
b11111111111111111111111111100011 a
b1000 *
b1000 e
b1000 g
b1111111111111111 -
b1111111111111111 ?
b1111111111111111 d
b11111110111101000000000110100011 0
b11111110111101000000000110100011 `
b11111110111101000000000110100011 c
b1000 ,
b1000 f
b1000 j
b1000 t
b111 +
b111 A
b111 b
b111 h
b111 i
1!
#28
0!
#30
b10000101 %
b10000101 n
b10000101 v
b10000101 6
b10000101 =
b10000101 Y
b10000101 r
b111 O
b111 R
b111 V
b0 &
b0 E
b0 u
b0 H
b0 X
0/
0J
b0 1
b0 D
b0 _
b0 L
b0 W
1'
1I
b1100101 (
b1100101 9
b1100101 [
b1100101 p
b1100100 $
b1100100 ;
b1100100 o
b100001 #
b100001 7
b100001 :
b10011 G
b10011 U
b1111 m
b1 l
b0 k
b100001 2
b100001 8
b100001 @
b100001 a
bx )
bx \
bx s
b1001 *
b1001 e
b1001 g
b10000 -
b10000 ?
b10000 d
b10000100000000011110010011 0
b10000100000000011110010011 `
b10000100000000011110010011 c
b1001 ,
b1001 f
b1001 j
b1001 t
b1000 +
b1000 A
b1000 b
b1000 h
b1000 i
1!
#32
0!
#34
b0 %
b0 n
b0 v
b1010010 6
b1010010 =
b1010010 Y
b1010010 r
b0 O
b0 R
b0 V
bx &
bx E
bx u
bx H
bx X
1/
1J
b1 1
b1 D
b1 _
b1 L
b1 W
0'
0I
b10000101 (
b10000101 9
b10000101 [
b10000101 p
b1100110 $
b1100110 ;
b1100110 o
b11111111111111111111111111101100 #
b11111111111111111111111111101100 7
b11111111111111111111111111101100 :
b100011 G
b100011 U
b10 F
b10 Q
b10 T
b10 Z
b1100 m
b1111 l
b1000 k
b11111111111111111111111111101100 2
b11111111111111111111111111101100 8
b11111111111111111111111111101100 @
b11111111111111111111111111101100 a
b1010 *
b1010 e
b1010 g
b100 -
b100 ?
b100 d
b11111110111101000010011000100011 0
b11111110111101000010011000100011 `
b11111110111101000010011000100011 c
b1010 ,
b1010 f
b1010 j
b1010 t
b1001 +
b1001 A
b1001 b
b1001 h
b1001 i
1!
#36
0!
#38
b1001110 6
b1001110 =
b1001110 Y
b1001110 r
b1100100 (
b1100100 9
b1100100 [
b1100100 p
b11111111111111111111111111101000 #
b11111111111111111111111111101000 7
b11111111111111111111111111101000 :
b1000 m
b0 l
b11111111111111111111111111101000 2
b11111111111111111111111111101000 8
b11111111111111111111111111101000 @
b11111111111111111111111111101000 a
bx )
bx \
bx s
b1011 *
b1011 e
b1011 g
b100 -
b100 ?
b100 d
b11111110000001000010010000100011 0
b11111110000001000010010000100011 `
b11111110000001000010010000100011 c
b1011 ,
b1011 f
b1011 j
b1011 t
b1010 +
b1010 A
b1010 b
b1010 h
b1010 i
1!
#40
0!
#42
bx 4
bx >
bx C
b1100 %
b1100 n
b1100 v
bx 6
bx =
bx Y
bx r
1.
1K
bx O
bx R
bx V
b10 &
b10 E
b10 u
b10 H
b10 X
0/
0J
x3
xN
b11 1
b11 D
b11 _
b11 L
b11 W
1'
1I
b10000000 (
b10000000 9
b10000000 [
b10000000 p
b1100100 $
b1100100 ;
b1100100 o
b0x0xxxx00 #
b0x0xxxx00 7
b0x0xxxx00 :
b1101111 G
b1101111 U
b0 F
b0 Q
b0 T
b0 Z
b0 m
b11100 l
b0 k
b111100 2
b111100 8
b111100 @
b111100 a
bx )
bx \
bx s
b11010 *
b11010 e
b11010 g
b11010 -
b11010 ?
b11010 d
b11110000000000000001101111 0
b11110000000000000001101111 `
b11110000000000000001101111 c
b1100 ,
b1100 f
b1100 j
b1100 t
b1011 +
b1011 A
b1011 b
b1011 h
b1011 i
1!
#44
0!
#46
b1100100 )
b1100100 \
b1100100 s
bx00 4
bx00 >
bx00 C
b1001110 6
b1001110 =
b1001110 Y
b1001110 r
0.
0K
b0 O
b0 R
b0 V
b1 &
b1 E
b1 u
b1 H
b1 X
13
1N
b0 1
b0 D
b0 _
b0 L
b0 W
b1100110 (
b1100110 9
b1100110 [
b1100110 p
b1100110 $
b1100110 ;
b1100110 o
b11111111111111111111111111101000 #
b11111111111111111111111111101000 7
b11111111111111111111111111101000 :
b11011 *
b11011 e
b11011 g
b11 G
b11 U
b10 F
b10 Q
b10 T
b10 Z
b1110 m
b1000 l
b1000 k
b11111111111111111111111111101000 2
b11111111111111111111111111101000 8
b11111111111111111111111111101000 @
b11111111111111111111111111101000 a
b1100100 %
b1100100 n
b1100100 v
b10100 -
b10100 ?
b10100 d
b11111110100001000010011100000011 0
b11111110100001000010011100000011 `
b11111110100001000010011100000011 c
b11011 ,
b11011 f
b11011 j
b11011 t
b11010 +
b11010 A
b11010 b
b11010 h
b11010 i
1!
#48
0!
#50
b1101100xxxxxxxxxxxxxxxxxxxxxxxx )
b1101100xxxxxxxxxxxxxxxxxxxxxxxx \
b1101100xxxxxxxxxxxxxxxxxxxxxxxx s
b1100101 %
b1100101 n
b1100101 v
b1100101 6
b1100101 =
b1100101 Y
b1100101 r
b111 O
b111 R
b111 V
b0 &
b0 E
b0 u
b0 H
b0 X
b1100101 (
b1100101 9
b1100101 [
b1100101 p
b1100100 $
b1100100 ;
b1100100 o
b1 #
b1 7
b1 :
b10011 G
b10011 U
b0 F
b0 Q
b0 T
b0 Z
b1111 m
b1 l
b0 k
b1 2
b1 8
b1 @
b1 a
b11100 *
b11100 e
b11100 g
b11011 -
b11011 ?
b11011 d
b100000000011110010011 0
b100000000011110010011 `
b100000000011110010011 c
b11100 ,
b11100 f
b11100 j
b11100 t
b11011 +
b11011 A
b11011 b
b11011 h
b11011 i
1!
#52
0!
#54
bx )
bx \
bx s
1.
b0 %
b0 n
b0 v
b0 4
b0 >
b0 C
b1 6
b1 =
b1 Y
b1 r
b1 5
b1 <
b1 B
b1 P
b1 S
b1 O
b1 R
b1 V
1M
bx &
bx E
bx u
bx H
bx X
03
0N
b10 1
b10 D
b10 _
b10 L
b10 W
0'
0I
b1100100 (
b1100100 9
b1100100 [
b1100100 p
b1100101 $
b1100101 ;
b1100101 o
b1100100 #
b1100100 7
b1100100 :
b1100011 G
b1100011 U
b101 F
b101 Q
b101 T
b101 Z
b1 m
b1110 l
b1111 k
b11111111111111111111111111000000 2
b11111111111111111111111111000000 8
b11111111111111111111111111000000 @
b11111111111111111111111111000000 a
b1100 *
b1100 e
b1100 g
b1100 -
b1100 ?
b1100 d
b11111100111001111101000011100011 0
b11111100111001111101000011100011 `
b11111100111001111101000011100011 c
b11101 ,
b11101 f
b11101 j
b11101 t
b11100 +
b11100 A
b11100 b
b11100 h
b11100 i
1!
#56
0!
#58
b1100100 )
b1100100 \
b1100100 s
0.
b1100100 %
b1100100 n
b1100100 v
b11111111111111111111111111101000 #
b11111111111111111111111111101000 7
b11111111111111111111111111101000 :
b1001110 6
b1001110 =
b1001110 Y
b1001110 r
b0 5
b0 <
b0 B
b0 P
b0 S
b0 O
b0 R
b0 V
0M
b1 &
b1 E
b1 u
b1 H
b1 X
13
1N
b0 1
b0 D
b0 _
b0 L
b0 W
1'
1I
b1100110 (
b1100110 9
b1100110 [
b1100110 p
b1100110 $
b1100110 ;
b1100110 o
b1101 *
b1101 e
b1101 g
b11 G
b11 U
b10 F
b10 Q
b10 T
b10 Z
b1111 m
b1000 l
b1000 k
b11111111111111111111111111101000 2
b11111111111111111111111111101000 8
b11111111111111111111111111101000 @
b11111111111111111111111111101000 a
b110 -
b110 ?
b110 d
b11111110100001000010011110000011 0
b11111110100001000010011110000011 `
b11111110100001000010011110000011 c
b1101 ,
b1101 f
b1101 j
b1101 t
b1100 +
b1100 A
b1100 b
b1100 h
b1100 i
1!
#60
0!
#62
b101 4
b101 >
b101 C
bx )
bx \
bx s
1.
b0 %
b0 n
b0 v
b0 6
b0 =
b0 Y
b0 r
b100 5
b100 <
b100 B
b100 P
b100 S
b100 O
b100 R
b100 V
1M
bx &
bx E
bx u
bx H
bx X
03
0N
b10 1
b10 D
b10 _
b10 L
b10 W
0'
0I
b1100100 (
b1100100 9
b1100100 [
b1100100 p
b1100100 $
b1100100 ;
b1100100 o
b1100100 #
b1100100 7
b1100100 :
b1100011 G
b1100011 U
b1 F
b1 Q
b1 T
b1 Z
b10000 m
b0 l
b1111 k
b10000 2
b10000 8
b10000 @
b10000 a
b10001 *
b10001 e
b10001 g
b10001 -
b10001 ?
b10001 d
b1111001100001100011 0
b1111001100001100011 `
b1111001100001100011 c
b1110 ,
b1110 f
b1110 j
b1110 t
b1101 +
b1101 A
b1101 b
b1101 h
b1101 i
1!
#64
0!
#66
b10000101 )
b10000101 \
b10000101 s
0.
b10000101 %
b10000101 n
b10000101 v
b11111111111111111111111111101100 #
b11111111111111111111111111101100 7
b11111111111111111111111111101100 :
b100 4
b100 >
b100 C
b1010010 6
b1010010 =
b1010010 Y
b1010010 r
b0 5
b0 <
b0 B
b0 P
b0 S
b0 O
b0 R
b0 V
0M
b1 &
b1 E
b1 u
b1 H
b1 X
13
1N
b0 1
b0 D
b0 _
b0 L
b0 W
1'
1I
b1110000 (
b1110000 9
b1110000 [
b1110000 p
b1100110 $
b1100110 ;
b1100110 o
b10010 *
b10010 e
b10010 g
b11 G
b11 U
b10 F
b10 Q
b10 T
b10 Z
b1111 m
b1100 l
b1000 k
b11111111111111111111111111101100 2
b11111111111111111111111111101100 8
b11111111111111111111111111101100 @
b11111111111111111111111111101100 a
b1100 -
b1100 ?
b1100 d
b11111110110001000010011110000011 0
b11111110110001000010011110000011 `
b11111110110001000010011110000011 c
b10010 ,
b10010 f
b10010 j
b10010 t
b10001 +
b10001 A
b10001 b
b10001 h
b10001 i
1!
#68
0!
#70
bx )
bx \
bx s
b100001010 %
b100001010 n
b100001010 v
b0 4
b0 >
b0 C
b100001010 6
b100001010 =
b100001010 Y
b100001010 r
b11 5
b11 <
b11 B
b11 P
b11 S
b111 O
b111 R
b111 V
b0 &
b0 E
b0 u
b0 H
b0 X
b1100101 (
b1100101 9
b1100101 [
b1100101 p
b10000101 $
b10000101 ;
b10000101 o
b1 #
b1 7
b1 :
b10011 G
b10011 U
b1 F
b1 Q
b1 T
b1 Z
b1 l
b1111 k
b1 2
b1 8
b1 @
b1 a
b10011 *
b10011 e
b10011 g
b10010 -
b10010 ?
b10010 d
b101111001011110010011 0
b101111001011110010011 `
b101111001011110010011 c
b10011 ,
b10011 f
b10011 j
b10011 t
b10010 +
b10010 A
b10010 b
b10010 h
b10010 i
1!
#72
0!
#74
b10000101 )
b10000101 \
b10000101 s
b0 %
b0 n
b0 v
b0 5
b0 <
b0 B
b0 P
b0 S
b0 O
b0 R
b0 V
bx &
bx E
bx u
bx H
bx X
1/
1J
b1 1
b1 D
b1 _
b1 L
b1 W
0'
0I
b100001010 (
b100001010 9
b100001010 [
b100001010 p
b11111111111111111111111111101100 #
b11111111111111111111111111101100 7
b11111111111111111111111111101100 :
b1010010 6
b1010010 =
b1010010 Y
b1010010 r
b100011 G
b100011 U
b10 F
b10 Q
b10 T
b10 Z
b1100 m
b1111 l
b1000 k
b11111111111111111111111111101100 2
b11111111111111111111111111101100 8
b11111111111111111111111111101100 @
b11111111111111111111111111101100 a
b1100110 $
b1100110 ;
b1100110 o
b10100 *
b10100 e
b10100 g
b1110 -
b1110 ?
b1110 d
b11111110111101000010011000100011 0
b11111110111101000010011000100011 `
b11111110111101000010011000100011 c
b10100 ,
b10100 f
b10100 j
b10100 t
b10011 +
b10011 A
b10011 b
b10011 h
b10011 i
1!
#76
0!
#78
b100001010 %
b100001010 n
b100001010 v
b1010010 6
b1010010 =
b1010010 Y
b1010010 r
b1 &
b1 E
b1 u
b1 H
b1 X
0/
0J
b0 1
b0 D
b0 _
b0 L
b0 W
1'
1I
b1110000 (
b1110000 9
b1110000 [
b1110000 p
b11111111111111111111111111101100 #
b11111111111111111111111111101100 7
b11111111111111111111111111101100 :
b11 G
b11 U
b1111 m
b1100 l
b11111111111111111111111111101100 2
b11111111111111111111111111101100 8
b11111111111111111111111111101100 @
b11111111111111111111111111101100 a
b100001010 )
b100001010 \
b100001010 s
b10101 *
b10101 e
b10101 g
b1111 -
b1111 ?
b1111 d
b11111110110001000010011110000011 0
b11111110110001000010011110000011 `
b11111110110001000010011110000011 c
b10101 ,
b10101 f
b10101 j
b10101 t
b10100 +
b10100 A
b10100 b
b10100 h
b10100 i
1!
#80
0!
#82
bx )
bx \
bx s
b100011001 %
b100011001 n
b100011001 v
b100011001 6
b100011001 =
b100011001 Y
b100011001 r
b111 O
b111 R
b111 V
b0 &
b0 E
b0 u
b0 H
b0 X
b100001010 (
b100001010 9
b100001010 [
b100001010 p
b100001010 $
b100001010 ;
b100001010 o
b1111 #
b1111 7
b1111 :
b10011 G
b10011 U
b111 F
b111 Q
b111 T
b111 Z
b1111 l
b1111 k
b1111 2
b1111 8
b1111 @
b1111 a
b10110 *
b10110 e
b10110 g
b11000 -
b11000 ?
b11000 d
b111101111111011110010011 0
b111101111111011110010011 `
b111101111111011110010011 c
b10110 ,
b10110 f
b10110 j
b10110 t
b10101 +
b10101 A
b10101 b
b10101 h
b10101 i
1!
#84
0!
#86
b100001010 )
b100001010 \
b100001010 s
b0 %
b0 n
b0 v
b0 O
b0 R
b0 V
bx &
bx E
bx u
bx H
bx X
1/
1J
b1 1
b1 D
b1 _
b1 L
b1 W
0'
0I
b11111111111111111111111111101100 #
b11111111111111111111111111101100 7
b11111111111111111111111111101100 :
b1010010 6
b1010010 =
b1010010 Y
b1010010 r
b100011 G
b100011 U
b10 F
b10 Q
b10 T
b10 Z
b1100 m
b1000 k
b11111111111111111111111111101100 2
b11111111111111111111111111101100 8
b11111111111111111111111111101100 @
b11111111111111111111111111101100 a
b100011001 (
b100011001 9
b100011001 [
b100011001 p
b1100110 $
b1100110 ;
b1100110 o
b10111 *
b10111 e
b10111 g
b10001 -
b10001 ?
b10001 d
b11111110111101000010011000100011 0
b11111110111101000010011000100011 `
b11111110111101000010011000100011 c
b10111 ,
b10111 f
b10111 j
b10111 t
b10110 +
b10110 A
b10110 b
b10110 h
b10110 i
1!
#88
0!
#90
b1100100 %
b1100100 n
b1100100 v
b1001110 6
b1001110 =
b1001110 Y
b1001110 r
b1 &
b1 E
b1 u
b1 H
b1 X
0/
0J
b0 1
b0 D
b0 _
b0 L
b0 W
1'
1I
b1100110 (
b1100110 9
b1100110 [
b1100110 p
b11111111111111111111111111101000 #
b11111111111111111111111111101000 7
b11111111111111111111111111101000 :
b11 G
b11 U
b1111 m
b1000 l
b11111111111111111111111111101000 2
b11111111111111111111111111101000 8
b11111111111111111111111111101000 @
b11111111111111111111111111101000 a
b1100100 )
b1100100 \
b1100100 s
b11000 *
b11000 e
b11000 g
b10001 -
b10001 ?
b10001 d
b11111110100001000010011110000011 0
b11111110100001000010011110000011 `
b11111110100001000010011110000011 c
b11000 ,
b11000 f
b11000 j
b11000 t
b10111 +
b10111 A
b10111 b
b10111 h
b10111 i
1!
#92
0!
#94
b1101100xxxxxxxxxxxxxxxxxxxxxxxx )
b1101100xxxxxxxxxxxxxxxxxxxxxxxx \
b1101100xxxxxxxxxxxxxxxxxxxxxxxx s
b1100101 %
b1100101 n
b1100101 v
b1100101 6
b1100101 =
b1100101 Y
b1100101 r
b111 O
b111 R
b111 V
b0 &
b0 E
b0 u
b0 H
b0 X
b1100101 (
b1100101 9
b1100101 [
b1100101 p
b1100100 $
b1100100 ;
b1100100 o
b1 #
b1 7
b1 :
b10011 G
b10011 U
b0 F
b0 Q
b0 T
b0 Z
b1 l
b1111 k
b1 2
b1 8
b1 @
b1 a
b11001 *
b11001 e
b11001 g
b11000 -
b11000 ?
b11000 d
b101111000011110010011 0
b101111000011110010011 `
b101111000011110010011 c
b11001 ,
b11001 f
b11001 j
b11001 t
b11000 +
b11000 A
b11000 b
b11000 h
b11000 i
1!
#96
0!
#98
b1100100 )
b1100100 \
b1100100 s
b0 %
b0 n
b0 v
b0 O
b0 R
b0 V
bx &
bx E
bx u
bx H
bx X
1/
1J
b1 1
b1 D
b1 _
b1 L
b1 W
0'
0I
b11111111111111111111111111101000 #
b11111111111111111111111111101000 7
b11111111111111111111111111101000 :
b1001110 6
b1001110 =
b1001110 Y
b1001110 r
b100011 G
b100011 U
b10 F
b10 Q
b10 T
b10 Z
b1000 m
b1111 l
b1000 k
b11111111111111111111111111101000 2
b11111111111111111111111111101000 8
b11111111111111111111111111101000 @
b11111111111111111111111111101000 a
b1100110 $
b1100110 ;
b1100110 o
b11010 *
b11010 e
b11010 g
b10011 -
b10011 ?
b10011 d
b11111110111101000010010000100011 0
b11111110111101000010010000100011 `
b11111110111101000010010000100011 c
b11010 ,
b11010 f
b11010 j
b11010 t
b11001 +
b11001 A
b11001 b
b11001 h
b11001 i
1!
#100
0!
#102
b1100101 %
b1100101 n
b1100101 v
b1001110 6
b1001110 =
b1001110 Y
b1001110 r
b1 &
b1 E
b1 u
b1 H
b1 X
0/
0J
b0 1
b0 D
b0 _
b0 L
b0 W
1'
1I
b1100110 (
b1100110 9
b1100110 [
b1100110 p
b11111111111111111111111111101000 #
b11111111111111111111111111101000 7
b11111111111111111111111111101000 :
b11 G
b11 U
b1110 m
b1000 l
b11111111111111111111111111101000 2
b11111111111111111111111111101000 8
b11111111111111111111111111101000 @
b11111111111111111111111111101000 a
b1100101 )
b1100101 \
b1100101 s
b11011 *
b11011 e
b11011 g
b10100 -
b10100 ?
b10100 d
b11111110100001000010011100000011 0
b11111110100001000010011100000011 `
b11111110100001000010011100000011 c
b11011 ,
b11011 f
b11011 j
b11011 t
b11010 +
b11010 A
b11010 b
b11010 h
b11010 i
1!
#104
0!
