scripts/TB_Datapath.vcd
$date
	Sat Nov 16 11:30:14 2024
$end
$version
	Icarus Verilog
$end
$timescale
	1s
$end
$scope module TB_Datapath $end
$var reg 1 ! CLK $end
$var reg 1 " Reset $end
$scope module UUT $end
$var wire 1 ! CLK $end
$var wire 1 " Reset $end
$var wire 32 # SrcB_wire [31:0] $end
$var wire 32 $ SrcA_wire [31:0] $end
$var wire 32 % Result_wire [31:0] $end
$var wire 2 & Result_Src [1:0] $end
$var wire 1 ' RegWrite_EN $end
$var wire 32 ( Reg2_output [31:0] $end
$var wire 32 ) Read_Mem_Data [31:0] $end
$var wire 32 * PCnext [31:0] $end
$var wire 32 + PC_wire [31:0] $end
$var wire 32 , PC_plus_4 [31:0] $end
$var wire 32 - PCTarget [31:0] $end
$var wire 1 . PCSrc $end
$var wire 1 / MemWrite_Enable $end
$var wire 32 0 Instruction [31:0] $end
$var wire 3 1 Imm_src [2:0] $end
$var wire 32 2 Extended_Imm [31:0] $end
$var wire 1 3 ALU_Src $end
$var wire 3 4 ALU_Flags [2:0] $end
$var wire 3 5 ALU_CONTROL_wire [2:0] $end
$var wire 32 6 ALUResult_wire [31:0] $end
$scope module ALUSRCB_Mux $end
$var wire 1 3 sel $end
$var wire 32 7 out [31:0] $end
$var wire 32 8 b [31:0] $end
$var wire 32 9 a [31:0] $end
$upscope $end
$scope module ALU_unit $end
$var wire 32 : scrB [31:0] $end
$var wire 32 ; scrA [31:0] $end
$var wire 3 < AluControl [2:0] $end
$var reg 32 = ALUresult [31:0] $end
$var reg 3 > Flag [2:0] $end
$upscope $end
$scope module BRANCH_OFFSET_ADDER $end
$var wire 32 ? pc [31:0] $end
$var wire 32 @ branch_offset [31:0] $end
$var wire 32 A PC_itself [31:0] $end
$upscope $end
$scope module ControlUnit $end
$var wire 3 B ALU_Control [2:0] $end
$var wire 3 C ALU_flags [2:0] $end
$var wire 1 3 ALU_src $end
$var wire 3 D ImmSrc [2:0] $end
$var wire 1 / MemWrite $end
$var wire 1 ' RegWrite $end
$var wire 2 E Result_src [1:0] $end
$var wire 3 F funct3 [2:0] $end
$var wire 7 G opcode [6:0] $end
$var wire 2 H Result_src_intermediate [1:0] $end
$var wire 1 I RegWrite_intermediate $end
$var wire 1 . PC_Src $end
$var wire 1 J MemWrite_intermediate $end
$var wire 1 K Jump $end
$var wire 3 L ImmSrc_intermediate [2:0] $end
$var wire 1 M Branch $end
$var wire 1 N ALU_src_intermediate $end
$var wire 3 O ALU_op [2:0] $end
$var wire 3 P ALU_Control_intermediate [2:0] $end
$scope module Alu_decode $end
$var wire 3 Q funct3 [2:0] $end
$var wire 3 R ALUOP [2:0] $end
$var reg 3 S ALU_Control [2:0] $end
$upscope $end
$scope module main_decoder $end
$var wire 3 T funct3 [2:0] $end
$var wire 7 U opcode [6:0] $end
$var reg 3 V ALU_op [2:0] $end
$var reg 1 N ALU_src $end
$var reg 1 M Branch $end
$var reg 3 W ImmSrc [2:0] $end
$var reg 1 K Jump $end
$var reg 1 J MemWrite $end
$var reg 1 I RegWrite $end
$var reg 2 X Result_src [1:0] $end
$upscope $end
$upscope $end
$scope module DataMemory $end
$var wire 32 Y ADDRESS [31:0] $end
$var wire 1 ! CLK $end
$var wire 1 / WE $end
$var wire 3 Z funct3 [2:0] $end
$var wire 32 [ WRITE_DATA [31:0] $end
$var reg 32 \ READ_DATA [31:0] $end
$upscope $end
$scope module Imm_Extender $end
$var wire 3 ] ImmControl [2:0] $end
$var wire 32 ^ Instr [31:0] $end
$var reg 32 _ ExtendedImm [31:0] $end
$upscope $end
$scope module Instruction_Memory $end
$var wire 32 ` PC [31:0] $end
$var reg 32 a Instr [31:0] $end
$upscope $end
$scope module PCNEXT_Mux $end
$var wire 32 b b [31:0] $end
$var wire 1 . sel $end
$var wire 32 c out [31:0] $end
$var wire 32 d a [31:0] $end
$upscope $end
$scope module PC_FLIPFLOP $end
$var wire 1 ! clk $end
$var wire 32 e d [31:0] $end
$var wire 1 " rst $end
$var reg 32 f q [31:0] $end
$upscope $end
$scope module PC_PLUS_FOUR $end
$var wire 32 g PC_itself [31:0] $end
$var wire 32 h pc [31:0] $end
$upscope $end
$scope module Register_File $end
$var wire 5 i A1 [4:0] $end
$var wire 5 j A2 [4:0] $end
$var wire 5 k A3 [4:0] $end
$var wire 1 ! CLK $end
$var wire 1 ' EN $end
$var wire 32 l WD3 [31:0] $end
$var reg 32 m RD1 [31:0] $end
$var reg 32 n RD2 [31:0] $end
$var integer 32 o i [31:0] $end
$upscope $end
$scope module Result_Mux $end
$var wire 32 p a [31:0] $end
$var wire 32 q b [31:0] $end
$var wire 32 r c [31:0] $end
$var wire 2 s sel [1:0] $end
$var reg 32 t out [31:0] $end
$upscope $end
$upscope $end
$upscope $end
$enddefinitions $end
#0
$dumpvars
b1000110 t
b0 s
b1 r
bx q
b1000110 p
b100000 o
b1100100 n
b1100110 m
b1000110 l
b10 k
b0 j
b10 i
b1 h
b0 g
b0 f
b1 e
b1 d
b1 c
b1111111111111000 b
b11111110000000010000000100010011 a
b0 `
b11111111111111111111111111100000 _
b11111110000000010000000100010011 ^
b0 ]
bx \
b1100100 [
b0 Z
b1000110 Y
b0 X
b0 W
b111 V
b10011 U
b0 T
b0 S
b111 R
b0 Q
b0 P
b111 O
1N
0M
b0 L
0K
0J
1I
b0 H
b10011 G
b0 F
b0 E
b0 D
bx00 C
b0 B
b0 A
b11111111111111111111111111100000 @
b1111111111111000 ?
bx00 >
b1000110 =
b0 <
b1100110 ;
b11111111111111111111111111100000 :
b1100100 9
b11111111111111111111111111100000 8
b11111111111111111111111111100000 7
b1000110 6
b0 5
bx00 4
13
b11111111111111111111111111100000 2
b0 1
b11111110000000010000000100010011 0
0/
0.
b1111111111111000 -
b1 ,
b0 +
b1 *
bx )
b1100100 (
1'
b0 &
b1000110 %
b1100110 $
b11111111111111111111111111100000 #
1"
0!
$end
#1
0"
#2
b0 %
b0 l
b0 t
b0 O
b0 R
b0 V
bx &
bx E
bx s
bx H
bx X
1/
1J
b1 1
b1 D
b1 ]
b1 L
b1 W
0'
0I
b1101100 (
b1101100 9
b1101100 [
b1101100 n
b11100 #
b11100 7
b11100 :
b1100010 6
b1100010 =
b1100010 Y
b1100010 p
b100011 G
b100011 U
b10 F
b10 Q
b10 T
b10 Z
b11100 k
b1000 j
b11100 2
b11100 8
b11100 @
b11100 _
b1000110 $
b1000110 ;
b1000110 m
b10 *
b10 c
b10 e
b1000 -
b1000 ?
b1000 b
b100000010010111000100011 0
b100000010010111000100011 ^
b100000010010111000100011 a
b10 ,
b10 d
b10 h
b10 r
b1 +
b1 A
b1 `
b1 f
b1 g
1!
#4
0!
#6
b1100110 %
b1100110 l
b1100110 t
b1100110 6
b1100110 =
b1100110 Y
b1100110 p
b111 O
b111 R
b111 V
b0 &
b0 E
b0 s
b0 H
b0 X
0/
0J
b0 1
b0 D
b0 ]
b0 L
b0 W
1'
1I
b1100100 (
b1100100 9
b1100100 [
b1100100 n
b100000 #
b100000 7
b100000 :
b10011 G
b10011 U
b0 F
b0 Q
b0 T
b0 Z
b1000 k
b0 j
b100000 2
b100000 8
b100000 @
b100000 _
bx )
bx \
bx q
b11 *
b11 c
b11 e
b1010 -
b1010 ?
b1010 b
b10000000010000010000010011 0
b10000000010000010000010011 ^
b10000000010000010000010011 a
b11 ,
b11 d
b11 h
b11 r
b10 +
b10 A
b10 `
b10 f
b10 g
1!
#8
0!
#10
bx 4
bx >
bx C
bx )
bx \
bx q
b0 %
b0 l
b0 t
bx 6
bx =
bx Y
bx p
bx O
bx R
bx V
bx &
bx E
bx s
bx H
bx X
x3
xN
b100 1
b100 D
b100 ]
b100 L
b100 W
b1100101 $
b1100101 ;
b1100101 m
b0xx00000xx00x00 #
b0xx00000xx00x00 7
b0xx00000xx00x00 :
b110111 G
b110111 U
b100 F
b100 Q
b100 T
b100 Z
b1111 k
b1 i
b11000000000000 2
b11000000000000 8
b11000000000000 @
b11000000000000 _
b100 *
b100 c
b100 e
b110000000011 -
b110000000011 ?
b110000000011 b
b1100011110110111 0
b1100011110110111 ^
b1100011110110111 a
b100 ,
b100 d
b100 h
b100 r
b11 +
b11 A
b11 `
b11 f
b11 g
1!
#12
0!
#14
bx00 4
bx00 >
bx00 C
b11111011111 6
b11111011111 =
b11111011111 Y
b11111011111 p
b11111011111 %
b11111011111 l
b11111011111 t
b111 O
b111 R
b111 V
b0 &
b0 E
b0 s
b0 H
b0 X
13
1N
b0 1
b0 D
b0 ]
b0 L
b0 W
b10000011 (
b10000011 9
b10000011 [
b10000011 n
b0 $
b0 ;
b0 m
b11111011111 #
b11111011111 7
b11111011111 :
b10011 G
b10011 U
b0 F
b0 Q
b0 T
b0 Z
b11111 j
b1111 i
b11111011111 2
b11111011111 8
b11111011111 @
b11111011111 _
b101 *
b101 c
b101 e
b111111011 -
b111111011 ?
b111111011 b
b1111101111101111000011110010011 0
b1111101111101111000011110010011 ^
b1111101111101111000011110010011 a
b101 ,
b101 d
b101 h
b101 r
b100 +
b100 A
b100 `
b100 f
b100 g
1!
#16
0!
#18
b0 %
b0 l
b0 t
b0 O
b0 R
b0 V
bx &
bx E
bx s
bx H
bx X
1/
1J
b1 1
b1 D
b1 ]
b1 L
b1 W
0'
0I
b11111011111 (
b11111011111 9
b11111011111 [
b11111011111 n
b11111111111111111111111111100100 #
b11111111111111111111111111100100 7
b11111111111111111111111111100100 :
b1001010 6
b1001010 =
b1001010 Y
b1001010 p
b100011 G
b100011 U
b10 F
b10 Q
b10 T
b10 Z
b100 k
b1111 j
b1000 i
b11111111111111111111111111100100 2
b11111111111111111111111111100100 8
b11111111111111111111111111100100 @
b11111111111111111111111111100100 _
b1100110 $
b1100110 ;
b1100110 m
b110 *
b110 c
b110 e
b1111111111111110 -
b1111111111111110 ?
b1111111111111110 b
b11111110111101000010001000100011 0
b11111110111101000010001000100011 ^
b11111110111101000010001000100011 a
b110 ,
b110 d
b110 h
b110 r
b101 +
b101 A
b101 `
b101 f
b101 g
1!
#20
0!
#22
b11000111 %
b11000111 l
b11000111 t
b11000111 6
b11000111 =
b11000111 Y
b11000111 p
b111 O
b111 R
b111 V
b0 &
b0 E
b0 s
b0 H
b0 X
0/
0J
b0 1
b0 D
b0 ]
b0 L
b0 W
1'
1I
b1100111 (
b1100111 9
b1100111 [
b1100111 n
b1100100 $
b1100100 ;
b1100100 m
b1100011 #
b1100011 7
b1100011 :
b10011 G
b10011 U
b0 F
b0 Q
b0 T
b0 Z
b1111 k
b11 j
b0 i
b1100011 2
b1100011 8
b1100011 @
b1100011 _
bx )
bx \
bx q
b111 *
b111 c
b111 e
b11110 -
b11110 ?
b11110 b
b110001100000000011110010011 0
b110001100000000011110010011 ^
b110001100000000011110010011 a
b111 ,
b111 d
b111 h
b111 r
b110 +
b110 A
b110 `
b110 f
b110 g
1!
#24
0!
#26
bx000000000000000000000111 )
bx000000000000000000000111 \
bx000000000000000000000111 q
b0 %
b0 l
b0 t
b1001001 6
b1001001 =
b1001001 Y
b1001001 p
b0 O
b0 R
b0 V
bx &
bx E
bx s
bx H
bx X
1/
1J
b1 1
b1 D
b1 ]
b1 L
b1 W
0'
0I
b11000111 (
b11000111 9
b11000111 [
b11000111 n
b1100110 $
b1100110 ;
b1100110 m
b11111111111111111111111111100011 #
b11111111111111111111111111100011 7
b11111111111111111111111111100011 :
b100011 G
b100011 U
b11 k
b1111 j
b1000 i
b11111111111111111111111111100011 2
b11111111111111111111111111100011 8
b11111111111111111111111111100011 @
b11111111111111111111111111100011 _
b1000 *
b1000 c
b1000 e
b1111111111111111 -
b1111111111111111 ?
b1111111111111111 b
b11111110111101000000000110100011 0
b11111110111101000000000110100011 ^
b11111110111101000000000110100011 a
b1000 ,
b1000 d
b1000 h
b1000 r
b111 +
b111 A
b111 `
b111 f
b111 g
1!
#28
0!
#30
b10000101 %
b10000101 l
b10000101 t
b10000101 6
b10000101 =
b10000101 Y
b10000101 p
b111 O
b111 R
b111 V
b0 &
b0 E
b0 s
b0 H
b0 X
0/
0J
b0 1
b0 D
b0 ]
b0 L
b0 W
1'
1I
b1100101 (
b1100101 9
b1100101 [
b1100101 n
b1100100 $
b1100100 ;
b1100100 m
b100001 #
b100001 7
b100001 :
b10011 G
b10011 U
b1111 k
b1 j
b0 i
b100001 2
b100001 8
b100001 @
b100001 _
bx )
bx \
bx q
b1001 *
b1001 c
b1001 e
b10000 -
b10000 ?
b10000 b
b10000100000000011110010011 0
b10000100000000011110010011 ^
b10000100000000011110010011 a
b1001 ,
b1001 d
b1001 h
b1001 r
b1000 +
b1000 A
b1000 `
b1000 f
b1000 g
1!
#32
0!
#34
b0 %
b0 l
b0 t
b1010010 6
b1010010 =
b1010010 Y
b1010010 p
b0 O
b0 R
b0 V
bx &
bx E
bx s
bx H
bx X
1/
1J
b1 1
b1 D
b1 ]
b1 L
b1 W
0'
0I
b10000101 (
b10000101 9
b10000101 [
b10000101 n
b1100110 $
b1100110 ;
b1100110 m
b11111111111111111111111111101100 #
b11111111111111111111111111101100 7
b11111111111111111111111111101100 :
b100011 G
b100011 U
b10 F
b10 Q
b10 T
b10 Z
b1100 k
b1111 j
b1000 i
b11111111111111111111111111101100 2
b11111111111111111111111111101100 8
b11111111111111111111111111101100 @
b11111111111111111111111111101100 _
b1010 *
b1010 c
b1010 e
b100 -
b100 ?
b100 b
b11111110111101000010011000100011 0
b11111110111101000010011000100011 ^
b11111110111101000010011000100011 a
b1010 ,
b1010 d
b1010 h
b1010 r
b1001 +
b1001 A
b1001 `
b1001 f
b1001 g
1!
#36
0!
#38
b1001110 6
b1001110 =
b1001110 Y
b1001110 p
b1100100 (
b1100100 9
b1100100 [
b1100100 n
b11111111111111111111111111101000 #
b11111111111111111111111111101000 7
b11111111111111111111111111101000 :
b1000 k
b0 j
b11111111111111111111111111101000 2
b11111111111111111111111111101000 8
b11111111111111111111111111101000 @
b11111111111111111111111111101000 _
bx )
bx \
bx q
b1011 *
b1011 c
b1011 e
b100 -
b100 ?
b100 b
b11111110000001000010010000100011 0
b11111110000001000010010000100011 ^
b11111110000001000010010000100011 a
b1011 ,
b1011 d
b1011 h
b1011 r
b1010 +
b1010 A
b1010 `
b1010 f
b1010 g
1!
#40
0!
#42
bx 4
bx >
bx C
b1100 %
b1100 l
b1100 t
bx 6
bx =
bx Y
bx p
1.
1K
bx O
bx R
bx V
b10 &
b10 E
b10 s
b10 H
b10 X
0/
0J
x3
xN
b11 1
b11 D
b11 ]
b11 L
b11 W
1'
1I
b10000000 (
b10000000 9
b10000000 [
b10000000 n
b1100100 $
b1100100 ;
b1100100 m
b0x0xxxx00 #
b0x0xxxx00 7
b0x0xxxx00 :
b1101111 G
b1101111 U
b0 F
b0 Q
b0 T
b0 Z
b0 k
b11100 j
b0 i
b111100 2
b111100 8
b111100 @
b111100 _
bx )
bx \
bx q
b11010 *
b11010 c
b11010 e
b11010 -
b11010 ?
b11010 b
b11110000000000000001101111 0
b11110000000000000001101111 ^
b11110000000000000001101111 a
b1100 ,
b1100 d
b1100 h
b1100 r
b1011 +
b1011 A
b1011 `
b1011 f
b1011 g
1!
#44
0!
#46
b1100100 )
b1100100 \
b1100100 q
bx00 4
bx00 >
bx00 C
b1001110 6
b1001110 =
b1001110 Y
b1001110 p
0.
0K
b0 O
b0 R
b0 V
b1 &
b1 E
b1 s
b1 H
b1 X
13
1N
b0 1
b0 D
b0 ]
b0 L
b0 W
b1100110 (
b1100110 9
b1100110 [
b1100110 n
b1100110 $
b1100110 ;
b1100110 m
b11111111111111111111111111101000 #
b11111111111111111111111111101000 7
b11111111111111111111111111101000 :
b11011 *
b11011 c
b11011 e
b11 G
b11 U
b10 F
b10 Q
b10 T
b10 Z
b1110 k
b1000 j
b1000 i
b11111111111111111111111111101000 2
b11111111111111111111111111101000 8
b11111111111111111111111111101000 @
b11111111111111111111111111101000 _
b1100100 %
b1100100 l
b1100100 t
b10100 -
b10100 ?
b10100 b
b11111110100001000010011100000011 0
b11111110100001000010011100000011 ^
b11111110100001000010011100000011 a
b11011 ,
b11011 d
b11011 h
b11011 r
b11010 +
b11010 A
b11010 `
b11010 f
b11010 g
1!
#48
0!
#50
b1101100xxxxxxxxxxxxxxxxxxxxxxxx )
b1101100xxxxxxxxxxxxxxxxxxxxxxxx \
b1101100xxxxxxxxxxxxxxxxxxxxxxxx q
b1100101 %
b1100101 l
b1100101 t
b1100101 6
b1100101 =
b1100101 Y
b1100101 p
b111 O
b111 R
b111 V
b0 &
b0 E
b0 s
b0 H
b0 X
b1100101 (
b1100101 9
b1100101 [
b1100101 n
b1100100 $
b1100100 ;
b1100100 m
b1 #
b1 7
b1 :
b10011 G
b10011 U
b0 F
b0 Q
b0 T
b0 Z
b1111 k
b1 j
b0 i
b1 2
b1 8
b1 @
b1 _
b11100 *
b11100 c
b11100 e
b11011 -
b11011 ?
b11011 b
b100000000011110010011 0
b100000000011110010011 ^
b100000000011110010011 a
b11100 ,
b11100 d
b11100 h
b11100 r
b11011 +
b11011 A
b11011 `
b11011 f
b11011 g
1!
#52
0!
#54
bx )
bx \
bx q
1.
b0 %
b0 l
b0 t
b0 4
b0 >
b0 C
b1 6
b1 =
b1 Y
b1 p
b1 5
b1 <
b1 B
b1 P
b1 S
b1 O
b1 R
b1 V
1M
bx &
bx E
bx s
bx H
bx X
03
0N
b10 1
b10 D
b10 ]
b10 L
b10 W
0'
0I
b1100100 (
b1100100 9
b1100100 [
b1100100 n
b1100101 $
b1100101 ;
b1100101 m
b1100100 #
b1100100 7
b1100100 :
b1100011 G
b1100011 U
b101 F
b101 Q
b101 T
b101 Z
b1 k
b1110 j
b1111 i
b11111111111111111111111111000000 2
b11111111111111111111111111000000 8
b11111111111111111111111111000000 @
b11111111111111111111111111000000 _
b1100 *
b1100 c
b1100 e
b1100 -
b1100 ?
b1100 b
b11111100111001111101000011100011 0
b11111100111001111101000011100011 ^
b11111100111001111101000011100011 a
b11101 ,
b11101 d
b11101 h
b11101 r
b11100 +
b11100 A
b11100 `
b11100 f
b11100 g
1!
#56
0!
#58
b1100100 )
b1100100 \
b1100100 q
0.
b1100100 %
b1100100 l
b1100100 t
b11111111111111111111111111101000 #
b11111111111111111111111111101000 7
b11111111111111111111111111101000 :
b1001110 6
b1001110 =
b1001110 Y
b1001110 p
b0 5
b0 <
b0 B
b0 P
b0 S
b0 O
b0 R
b0 V
0M
b1 &
b1 E
b1 s
b1 H
b1 X
13
1N
b0 1
b0 D
b0 ]
b0 L
b0 W
1'
1I
b1100110 (
b1100110 9
b1100110 [
b1100110 n
b1100110 $
b1100110 ;
b1100110 m
b1101 *
b1101 c
b1101 e
b11 G
b11 U
b10 F
b10 Q
b10 T
b10 Z
b1111 k
b1000 j
b1000 i
b11111111111111111111111111101000 2
b11111111111111111111111111101000 8
b11111111111111111111111111101000 @
b11111111111111111111111111101000 _
b110 -
b110 ?
b110 b
b11111110100001000010011110000011 0
b11111110100001000010011110000011 ^
b11111110100001000010011110000011 a
b1101 ,
b1101 d
b1101 h
b1101 r
b1100 +
b1100 A
b1100 `
b1100 f
b1100 g
1!
#60
0!
#62
b101 4
b101 >
b101 C
bx )
bx \
bx q
1.
b0 %
b0 l
b0 t
b0 6
b0 =
b0 Y
b0 p
b100 5
b100 <
b100 B
b100 P
b100 S
b100 O
b100 R
b100 V
1M
bx &
bx E
bx s
bx H
bx X
03
0N
b10 1
b10 D
b10 ]
b10 L
b10 W
0'
0I
b1100100 (
b1100100 9
b1100100 [
b1100100 n
b1100100 $
b1100100 ;
b1100100 m
b1100100 #
b1100100 7
b1100100 :
b1100011 G
b1100011 U
b1 F
b1 Q
b1 T
b1 Z
b10000 k
b0 j
b1111 i
b10000 2
b10000 8
b10000 @
b10000 _
b10001 *
b10001 c
b10001 e
b10001 -
b10001 ?
b10001 b
b1111001100001100011 0
b1111001100001100011 ^
b1111001100001100011 a
b1110 ,
b1110 d
b1110 h
b1110 r
b1101 +
b1101 A
b1101 `
b1101 f
b1101 g
1!
#64
0!
#66
b10000101 )
b10000101 \
b10000101 q
0.
b10000101 %
b10000101 l
b10000101 t
b11111111111111111111111111101100 #
b11111111111111111111111111101100 7
b11111111111111111111111111101100 :
b100 4
b100 >
b100 C
b1010010 6
b1010010 =
b1010010 Y
b1010010 p
b0 5
b0 <
b0 B
b0 P
b0 S
b0 O
b0 R
b0 V
0M
b1 &
b1 E
b1 s
b1 H
b1 X
13
1N
b0 1
b0 D
b0 ]
b0 L
b0 W
1'
1I
b1110000 (
b1110000 9
b1110000 [
b1110000 n
b1100110 $
b1100110 ;
b1100110 m
b10010 *
b10010 c
b10010 e
b11 G
b11 U
b10 F
b10 Q
b10 T
b10 Z
b1111 k
b1100 j
b1000 i
b11111111111111111111111111101100 2
b11111111111111111111111111101100 8
b11111111111111111111111111101100 @
b11111111111111111111111111101100 _
b1100 -
b1100 ?
b1100 b
b11111110110001000010011110000011 0
b11111110110001000010011110000011 ^
b11111110110001000010011110000011 a
b10010 ,
b10010 d
b10010 h
b10010 r
b10001 +
b10001 A
b10001 `
b10001 f
b10001 g
1!
#68
0!
#70
bx )
bx \
bx q
b100001010 %
b100001010 l
b100001010 t
b0 4
b0 >
b0 C
b100001010 6
b100001010 =
b100001010 Y
b100001010 p
b11 5
b11 <
b11 B
b11 P
b11 S
b111 O
b111 R
b111 V
b0 &
b0 E
b0 s
b0 H
b0 X
b1100101 (
b1100101 9
b1100101 [
b1100101 n
b10000101 $
b10000101 ;
b10000101 m
b1 #
b1 7
b1 :
b10011 G
b10011 U
b1 F
b1 Q
b1 T
b1 Z
b1 j
b1111 i
b1 2
b1 8
b1 @
b1 _
b10011 *
b10011 c
b10011 e
b10010 -
b10010 ?
b10010 b
b101111001011110010011 0
b101111001011110010011 ^
b101111001011110010011 a
b10011 ,
b10011 d
b10011 h
b10011 r
b10010 +
b10010 A
b10010 `
b10010 f
b10010 g
1!
#72
0!
#74
b10000101 )
b10000101 \
b10000101 q
b0 %
b0 l
b0 t
b0 5
b0 <
b0 B
b0 P
b0 S
b0 O
b0 R
b0 V
bx &
bx E
bx s
bx H
bx X
1/
1J
b1 1
b1 D
b1 ]
b1 L
b1 W
0'
0I
b100001010 (
b100001010 9
b100001010 [
b100001010 n
b11111111111111111111111111101100 #
b11111111111111111111111111101100 7
b11111111111111111111111111101100 :
b1010010 6
b1010010 =
b1010010 Y
b1010010 p
b100011 G
b100011 U
b10 F
b10 Q
b10 T
b10 Z
b1100 k
b1111 j
b1000 i
b11111111111111111111111111101100 2
b11111111111111111111111111101100 8
b11111111111111111111111111101100 @
b11111111111111111111111111101100 _
b1100110 $
b1100110 ;
b1100110 m
b10100 *
b10100 c
b10100 e
b1110 -
b1110 ?
b1110 b
b11111110111101000010011000100011 0
b11111110111101000010011000100011 ^
b11111110111101000010011000100011 a
b10100 ,
b10100 d
b10100 h
b10100 r
b10011 +
b10011 A
b10011 `
b10011 f
b10011 g
1!
#76
0!
#78
b100001010 %
b100001010 l
b100001010 t
b1010010 6
b1010010 =
b1010010 Y
b1010010 p
b1 &
b1 E
b1 s
b1 H
b1 X
0/
0J
b0 1
b0 D
b0 ]
b0 L
b0 W
1'
1I
b1110000 (
b1110000 9
b1110000 [
b1110000 n
b11111111111111111111111111101100 #
b11111111111111111111111111101100 7
b11111111111111111111111111101100 :
b11 G
b11 U
b1111 k
b1100 j
b11111111111111111111111111101100 2
b11111111111111111111111111101100 8
b11111111111111111111111111101100 @
b11111111111111111111111111101100 _
b100001010 )
b100001010 \
b100001010 q
b10101 *
b10101 c
b10101 e
b1111 -
b1111 ?
b1111 b
b11111110110001000010011110000011 0
b11111110110001000010011110000011 ^
b11111110110001000010011110000011 a
b10101 ,
b10101 d
b10101 h
b10101 r
b10100 +
b10100 A
b10100 `
b10100 f
b10100 g
1!
#80
0!
#82
bx )
bx \
bx q
b100011001 %
b100011001 l
b100011001 t
b100011001 6
b100011001 =
b100011001 Y
b100011001 p
b111 O
b111 R
b111 V
b0 &
b0 E
b0 s
b0 H
b0 X
b100001010 (
b100001010 9
b100001010 [
b100001010 n
b100001010 $
b100001010 ;
b100001010 m
b1111 #
b1111 7
b1111 :
b10011 G
b10011 U
b111 F
b111 Q
b111 T
b111 Z
b1111 j
b1111 i
b1111 2
b1111 8
b1111 @
b1111 _
b10110 *
b10110 c
b10110 e
b11000 -
b11000 ?
b11000 b
b111101111111011110010011 0
b111101111111011110010011 ^
b111101111111011110010011 a
b10110 ,
b10110 d
b10110 h
b10110 r
b10101 +
b10101 A
b10101 `
b10101 f
b10101 g
1!
#84
0!
#86
b100001010 )
b100001010 \
b100001010 q
b0 %
b0 l
b0 t
b0 O
b0 R
b0 V
bx &
bx E
bx s
bx H
bx X
1/
1J
b1 1
b1 D
b1 ]
b1 L
b1 W
0'
0I
b11111111111111111111111111101100 #
b11111111111111111111111111101100 7
b11111111111111111111111111101100 :
b1010010 6
b1010010 =
b1010010 Y
b1010010 p
b100011 G
b100011 U
b10 F
b10 Q
b10 T
b10 Z
b1100 k
b1000 i
b11111111111111111111111111101100 2
b11111111111111111111111111101100 8
b11111111111111111111111111101100 @
b11111111111111111111111111101100 _
b100011001 (
b100011001 9
b100011001 [
b100011001 n
b1100110 $
b1100110 ;
b1100110 m
b10111 *
b10111 c
b10111 e
b10001 -
b10001 ?
b10001 b
b11111110111101000010011000100011 0
b11111110111101000010011000100011 ^
b11111110111101000010011000100011 a
b10111 ,
b10111 d
b10111 h
b10111 r
b10110 +
b10110 A
b10110 `
b10110 f
b10110 g
1!
#88
0!
#90
b1100100 %
b1100100 l
b1100100 t
b1001110 6
b1001110 =
b1001110 Y
b1001110 p
b1 &
b1 E
b1 s
b1 H
b1 X
0/
0J
b0 1
b0 D
b0 ]
b0 L
b0 W
1'
1I
b1100110 (
b1100110 9
b1100110 [
b1100110 n
b11111111111111111111111111101000 #
b11111111111111111111111111101000 7
b11111111111111111111111111101000 :
b11 G
b11 U
b1111 k
b1000 j
b11111111111111111111111111101000 2
b11111111111111111111111111101000 8
b11111111111111111111111111101000 @
b11111111111111111111111111101000 _
b1100100 )
b1100100 \
b1100100 q
b11000 *
b11000 c
b11000 e
b10001 -
b10001 ?
b10001 b
b11111110100001000010011110000011 0
b11111110100001000010011110000011 ^
b11111110100001000010011110000011 a
b11000 ,
b11000 d
b11000 h
b11000 r
b10111 +
b10111 A
b10111 `
b10111 f
b10111 g
1!
#92
0!
#94
b1101100xxxxxxxxxxxxxxxxxxxxxxxx )
b1101100xxxxxxxxxxxxxxxxxxxxxxxx \
b1101100xxxxxxxxxxxxxxxxxxxxxxxx q
b1100101 %
b1100101 l
b1100101 t
b1100101 6
b1100101 =
b1100101 Y
b1100101 p
b111 O
b111 R
b111 V
b0 &
b0 E
b0 s
b0 H
b0 X
b1100101 (
b1100101 9
b1100101 [
b1100101 n
b1100100 $
b1100100 ;
b1100100 m
b1 #
b1 7
b1 :
b10011 G
b10011 U
b0 F
b0 Q
b0 T
b0 Z
b1 j
b1111 i
b1 2
b1 8
b1 @
b1 _
b11001 *
b11001 c
b11001 e
b11000 -
b11000 ?
b11000 b
b101111000011110010011 0
b101111000011110010011 ^
b101111000011110010011 a
b11001 ,
b11001 d
b11001 h
b11001 r
b11000 +
b11000 A
b11000 `
b11000 f
b11000 g
1!
#96
0!
#98
b1100100 )
b1100100 \
b1100100 q
b0 %
b0 l
b0 t
b0 O
b0 R
b0 V
bx &
bx E
bx s
bx H
bx X
1/
1J
b1 1
b1 D
b1 ]
b1 L
b1 W
0'
0I
b11111111111111111111111111101000 #
b11111111111111111111111111101000 7
b11111111111111111111111111101000 :
b1001110 6
b1001110 =
b1001110 Y
b1001110 p
b100011 G
b100011 U
b10 F
b10 Q
b10 T
b10 Z
b1000 k
b1111 j
b1000 i
b11111111111111111111111111101000 2
b11111111111111111111111111101000 8
b11111111111111111111111111101000 @
b11111111111111111111111111101000 _
b1100110 $
b1100110 ;
b1100110 m
b11010 *
b11010 c
b11010 e
b10011 -
b10011 ?
b10011 b
b11111110111101000010010000100011 0
b11111110111101000010010000100011 ^
b11111110111101000010010000100011 a
b11010 ,
b11010 d
b11010 h
b11010 r
b11001 +
b11001 A
b11001 `
b11001 f
b11001 g
1!
#100
0!
#102
b1100101 %
b1100101 l
b1100101 t
b1001110 6
b1001110 =
b1001110 Y
b1001110 p
b1 &
b1 E
b1 s
b1 H
b1 X
0/
0J
b0 1
b0 D
b0 ]
b0 L
b0 W
1'
1I
b1100110 (
b1100110 9
b1100110 [
b1100110 n
b11111111111111111111111111101000 #
b11111111111111111111111111101000 7
b11111111111111111111111111101000 :
b11 G
b11 U
b1110 k
b1000 j
b11111111111111111111111111101000 2
b11111111111111111111111111101000 8
b11111111111111111111111111101000 @
b11111111111111111111111111101000 _
b1100101 )
b1100101 \
b1100101 q
b11011 *
b11011 c
b11011 e
b10100 -
b10100 ?
b10100 b
b11111110100001000010011100000011 0
b11111110100001000010011100000011 ^
b11111110100001000010011100000011 a
b11011 ,
b11011 d
b11011 h
b11011 r
b11010 +
b11010 A
b11010 `
b11010 f
b11010 g
1!
#104
0!
